ISO-10303-21;
HEADER;
FILE_DESCRIPTION(('CATIA V5 STEP Exchange','CAx-IF Rec.Pracs.--- Model Styling and Organization---1.5--- 2016-08-15','CAx-IF Rec.Pracs.---Supplemental Geometry---1.0---2011-11-01','CAx-IF Rec.Pracs.--- Composite Materials ---3.4---2017-06-13','CAx-IF Rec.Pracs.---Tessellated 3D Geometry---1.0---2015-12-17'),'2;1');

FILE_NAME('M:\\Projekte\\P2020\\P2003_32WV-EU\\17_Anlagenplanung\\01_Automatisierung\\01_Konstruktion\\03_CS04-Flansch kpl\\2D\\01_CATIA\\01_Verstemmwerkzeug\\01_Unterteil.stp','2021-08-05T12:03:27+00:00',('none'),('none'),'CATIA Version 5-6 Release 2020 SP3 HF9','CATIA V5 STEP AP242 v2','none');

FILE_SCHEMA(('AP242_MANAGED_MODEL_BASED_3D_ENGINEERING_MIM_LF  {1 0 10303 442 1 1 4}'));

ENDSEC;
DATA;
#5=PRODUCT('01_Unterteil','','',(#2)) ;
#2=PRODUCT_CONTEXT(' ',#1,'mechanical') ;
#1=APPLICATION_CONTEXT('managed model based 3d engineering') ;
#10=PRODUCT_DEFINITION('',' ',#6,#3) ;
#3=PRODUCT_DEFINITION_CONTEXT('part definition',#1,' ') ;
#11=PRODUCT_DEFINITION_SHAPE(' ',' ',#10) ;
#1261=MECHANICAL_DESIGN_GEOMETRIC_PRESENTATION_REPRESENTATION(' ',(#29),#16) ;
#7=PRODUCT_CATEGORY('part','specification') ;
#19=SHAPE_REPRESENTATION(' ',(#18),#16) ;
#17=CARTESIAN_POINT(' ',(0.,0.,0.)) ;
#31=CARTESIAN_POINT('Axis2P3D Location',(17.25,5.4,0.)) ;
#36=CARTESIAN_POINT('Axis2P3D Location',(15.,5.4,0.)) ;
#40=CARTESIAN_POINT('Vertex',(19.,5.4,0.)) ;
#42=CARTESIAN_POINT('Vertex',(11.,5.4,4.89858719659E-16)) ;
#45=CARTESIAN_POINT('Axis2P3D Location',(15.,5.4,0.)) ;
#54=CARTESIAN_POINT('Axis2P3D Location',(15.,5.4,0.)) ;
#58=CARTESIAN_POINT('Vertex',(12.75,5.4,2.75545529808E-16)) ;
#60=CARTESIAN_POINT('Vertex',(17.25,5.4,0.)) ;
#63=CARTESIAN_POINT('Axis2P3D Location',(15.,5.4,0.)) ;
#73=CARTESIAN_POINT('Axis2P3D Location',(15.,10.,0.)) ;
#78=CARTESIAN_POINT('Axis2P3D Location',(15.,0.,0.)) ;
#82=CARTESIAN_POINT('Vertex',(12.75,0.,2.75545529808E-16)) ;
#84=CARTESIAN_POINT('Vertex',(17.25,0.,0.)) ;
#87=CARTESIAN_POINT('Line Origine',(12.75,-17.3,2.75545529808E-16)) ;
#92=CARTESIAN_POINT('Line Origine',(17.25,-17.3,0.)) ;
#104=CARTESIAN_POINT('Axis2P3D Location',(15.,0.,0.)) ;
#116=CARTESIAN_POINT('Axis2P3D Location',(31.,0.,0.)) ;
#121=CARTESIAN_POINT('Axis2P3D Location',(31.,0.,0.)) ;
#125=CARTESIAN_POINT('Vertex',(36.5,0.,0.)) ;
#127=CARTESIAN_POINT('Vertex',(25.5,0.,-3.11604639371E-15)) ;
#130=CARTESIAN_POINT('Line Origine',(36.5,3.24499999995,0.)) ;
#134=CARTESIAN_POINT('Vertex',(36.5,6.8,0.)) ;
#137=CARTESIAN_POINT('Axis2P3D Location',(31.,6.8,0.)) ;
#141=CARTESIAN_POINT('Vertex',(25.5,6.8,-3.11604639371E-15)) ;
#144=CARTESIAN_POINT('Line Origine',(25.5,3.24499999995,-3.11604639371E-15)) ;
#156=CARTESIAN_POINT('Axis2P3D Location',(31.,0.,0.)) ;
#161=CARTESIAN_POINT('Axis2P3D Location',(31.,6.8,0.)) ;
#173=CARTESIAN_POINT('Axis2P3D Location',(-31.,0.,0.)) ;
#178=CARTESIAN_POINT('Axis2P3D Location',(-31.,0.,0.)) ;
#182=CARTESIAN_POINT('Vertex',(-25.5,0.,0.)) ;
#184=CARTESIAN_POINT('Vertex',(-36.5,0.,-3.11604639371E-15)) ;
#187=CARTESIAN_POINT('Line Origine',(-25.5,3.24499999995,0.)) ;
#191=CARTESIAN_POINT('Vertex',(-25.5,6.8,0.)) ;
#194=CARTESIAN_POINT('Axis2P3D Location',(-31.,6.8,0.)) ;
#198=CARTESIAN_POINT('Vertex',(-36.5,6.8,-3.11604639371E-15)) ;
#201=CARTESIAN_POINT('Line Origine',(-36.5,3.24499999995,-3.11604639371E-15)) ;
#213=CARTESIAN_POINT('Axis2P3D Location',(-31.,0.,0.)) ;
#218=CARTESIAN_POINT('Axis2P3D Location',(-31.,6.8,0.)) ;
#230=CARTESIAN_POINT('Axis2P3D Location',(-27.7,6.8,0.)) ;
#239=CARTESIAN_POINT('Axis2P3D Location',(31.,6.8,0.)) ;
#243=CARTESIAN_POINT('Vertex',(27.7,6.8,-4.04133443719E-16)) ;
#245=CARTESIAN_POINT('Vertex',(34.3,6.8,0.)) ;
#248=CARTESIAN_POINT('Axis2P3D Location',(31.,6.8,0.)) ;
#262=CARTESIAN_POINT('Axis2P3D Location',(-31.,6.8,0.)) ;
#266=CARTESIAN_POINT('Vertex',(-34.3,6.8,-4.04133443719E-16)) ;
#268=CARTESIAN_POINT('Vertex',(-27.7,6.8,0.)) ;
#271=CARTESIAN_POINT('Axis2P3D Location',(-31.,6.8,0.)) ;
#281=CARTESIAN_POINT('Axis2P3D Location',(0.,0.,0.)) ;
#286=CARTESIAN_POINT('Line Origine',(-3.,499.844999999,-3.67394039744E-16)) ;
#290=CARTESIAN_POINT('Vertex',(-3.,10.,-3.67394039744E-16)) ;
#292=CARTESIAN_POINT('Vertex',(-3.,1.13686837722E-13,-3.67394039744E-16)) ;
#295=CARTESIAN_POINT('Axis2P3D Location',(0.,10.,0.)) ;
#299=CARTESIAN_POINT('Vertex',(3.,10.,0.)) ;
#302=CARTESIAN_POINT('Line Origine',(3.,499.844999999,7.34788079488E-16)) ;
#306=CARTESIAN_POINT('Vertex',(3.,0.,0.)) ;
#309=CARTESIAN_POINT('Axis2P3D Location',(0.,0.,0.)) ;
#321=CARTESIAN_POINT('Axis2P3D Location',(0.,10.,0.)) ;
#326=CARTESIAN_POINT('Axis2P3D Location',(0.,0.,0.)) ;
#338=CARTESIAN_POINT('Axis2P3D Location',(23.4890814902,0.,-4.41735789187)) ;
#343=CARTESIAN_POINT('Line Origine',(21.4890814902,499.845,-4.41735789187)) ;
#347=CARTESIAN_POINT('Vertex',(21.4890814902,10.,-4.41735789187)) ;
#349=CARTESIAN_POINT('Vertex',(21.4890814902,0.,-4.41735789187)) ;
#352=CARTESIAN_POINT('Axis2P3D Location',(23.4890814902,10.,-4.41735789187)) ;
#356=CARTESIAN_POINT('Vertex',(25.4890814902,10.,-4.41735789187)) ;
#359=CARTESIAN_POINT('Line Origine',(25.4890814902,499.845,-4.41735789187)) ;
#363=CARTESIAN_POINT('Vertex',(25.4890814902,0.,-4.41735789187)) ;
#366=CARTESIAN_POINT('Axis2P3D Location',(23.4890814902,0.,-4.41735789187)) ;
#378=CARTESIAN_POINT('Axis2P3D Location',(23.4890814902,10.,-4.41735789187)) ;
#383=CARTESIAN_POINT('Axis2P3D Location',(23.4890814902,0.,-4.41735789187)) ;
#395=CARTESIAN_POINT('Axis2P3D Location',(-23.4890814902,0.,4.41735789187)) ;
#400=CARTESIAN_POINT('Line Origine',(-25.4890814902,499.845,4.41735789187)) ;
#404=CARTESIAN_POINT('Vertex',(-25.4890814902,10.,4.41735789187)) ;
#406=CARTESIAN_POINT('Vertex',(-25.4890814902,0.,4.41735789187)) ;
#409=CARTESIAN_POINT('Axis2P3D Location',(-23.4890814902,10.,4.41735789187)) ;
#413=CARTESIAN_POINT('Vertex',(-21.4890814902,10.,4.41735789187)) ;
#416=CARTESIAN_POINT('Line Origine',(-21.4890814902,499.845,4.41735789187)) ;
#420=CARTESIAN_POINT('Vertex',(-21.4890814902,0.,4.41735789187)) ;
#423=CARTESIAN_POINT('Axis2P3D Location',(-23.4890814902,0.,4.41735789187)) ;
#435=CARTESIAN_POINT('Axis2P3D Location',(-23.4890814902,10.,4.41735789187)) ;
#440=CARTESIAN_POINT('Axis2P3D Location',(-23.4890814902,0.,4.41735789187)) ;
#452=CARTESIAN_POINT('Axis2P3D Location',(-1.9378815514,0.,23.8221454763)) ;
#457=CARTESIAN_POINT('Line Origine',(-3.9378815514,499.845,23.8221454763)) ;
#461=CARTESIAN_POINT('Vertex',(-3.9378815514,10.,23.8221454763)) ;
#463=CARTESIAN_POINT('Vertex',(-3.9378815514,0.,23.8221454763)) ;
#466=CARTESIAN_POINT('Axis2P3D Location',(-1.9378815514,10.,23.8221454763)) ;
#470=CARTESIAN_POINT('Vertex',(0.0621184486039,10.,23.8221454763)) ;
#473=CARTESIAN_POINT('Line Origine',(0.0621184486039,499.845,23.8221454763)) ;
#477=CARTESIAN_POINT('Vertex',(0.0621184486039,0.,23.8221454763)) ;
#480=CARTESIAN_POINT('Axis2P3D Location',(-1.9378815514,0.,23.8221454763)) ;
#492=CARTESIAN_POINT('Axis2P3D Location',(-1.9378815514,10.,23.8221454763)) ;
#497=CARTESIAN_POINT('Axis2P3D Location',(-1.9378815514,0.,23.8221454763)) ;
#509=CARTESIAN_POINT('Axis2P3D Location',(-31.,0.,0.)) ;
#514=CARTESIAN_POINT('Axis2P3D Location',(-31.,10.,0.)) ;
#518=CARTESIAN_POINT('Vertex',(-34.3,10.,-4.04133443719E-16)) ;
#520=CARTESIAN_POINT('Vertex',(-27.7,10.,0.)) ;
#523=CARTESIAN_POINT('Line Origine',(-27.7,28.4,8.08266887437E-16)) ;
#528=CARTESIAN_POINT('Line Origine',(-34.3,28.4,-4.04133443719E-16)) ;
#540=CARTESIAN_POINT('Axis2P3D Location',(-31.,10.,0.)) ;
#552=CARTESIAN_POINT('Axis2P3D Location',(31.,0.,0.)) ;
#557=CARTESIAN_POINT('Axis2P3D Location',(31.,10.,0.)) ;
#561=CARTESIAN_POINT('Vertex',(27.7,10.,-4.04133443719E-16)) ;
#563=CARTESIAN_POINT('Vertex',(34.3,10.,0.)) ;
#566=CARTESIAN_POINT('Line Origine',(34.3,28.4,8.08266887437E-16)) ;
#571=CARTESIAN_POINT('Line Origine',(27.7,28.4,-4.04133443719E-16)) ;
#583=CARTESIAN_POINT('Axis2P3D Location',(31.,10.,0.)) ;
#595=CARTESIAN_POINT('Axis2P3D Location',(0.,0.,-31.)) ;
#600=CARTESIAN_POINT('Line Origine',(-3.,24.8449999999,-31.)) ;
#604=CARTESIAN_POINT('Vertex',(-3.,10.,-31.)) ;
#606=CARTESIAN_POINT('Vertex',(-3.,-7.1054273576E-15,-31.)) ;
#609=CARTESIAN_POINT('Axis2P3D Location',(0.,10.,-31.)) ;
#613=CARTESIAN_POINT('Vertex',(3.,10.,-31.)) ;
#616=CARTESIAN_POINT('Line Origine',(3.,24.8449999999,-31.)) ;
#620=CARTESIAN_POINT('Vertex',(3.,0.,-31.)) ;
#623=CARTESIAN_POINT('Axis2P3D Location',(0.,0.,-31.)) ;
#635=CARTESIAN_POINT('Axis2P3D Location',(0.,10.,-31.)) ;
#640=CARTESIAN_POINT('Axis2P3D Location',(0.,0.,-31.)) ;
#652=CARTESIAN_POINT('Axis2P3D Location',(0.,0.,31.)) ;
#657=CARTESIAN_POINT('Line Origine',(-3.,24.8449999999,31.)) ;
#661=CARTESIAN_POINT('Vertex',(-3.,10.,31.)) ;
#663=CARTESIAN_POINT('Vertex',(-3.,0.,31.)) ;
#666=CARTESIAN_POINT('Axis2P3D Location',(0.,10.,31.)) ;
#670=CARTESIAN_POINT('Vertex',(3.,10.,31.)) ;
#673=CARTESIAN_POINT('Line Origine',(3.,24.8449999999,31.)) ;
#677=CARTESIAN_POINT('Vertex',(3.,0.,31.)) ;
#680=CARTESIAN_POINT('Axis2P3D Location',(0.,0.,31.)) ;
#692=CARTESIAN_POINT('Axis2P3D Location',(0.,10.,31.)) ;
#697=CARTESIAN_POINT('Axis2P3D Location',(0.,0.,31.)) ;
#709=CARTESIAN_POINT('Axis2P3D Location',(15.,10.,0.)) ;
#714=CARTESIAN_POINT('Axis2P3D Location',(15.,10.,0.)) ;
#718=CARTESIAN_POINT('Vertex',(11.,10.,4.89858719659E-16)) ;
#720=CARTESIAN_POINT('Vertex',(19.,10.,0.)) ;
#723=CARTESIAN_POINT('Line Origine',(19.,7.85500000005,0.)) ;
#728=CARTESIAN_POINT('Line Origine',(11.,7.85500000005,4.89858719659E-16)) ;
#740=CARTESIAN_POINT('Axis2P3D Location',(15.,10.,0.)) ;
#752=CARTESIAN_POINT('Axis2P3D Location',(-7.5,5.4,-12.9903810568)) ;
#756=CARTESIAN_POINT('Vertex',(-9.5,5.4,-16.4544826719)) ;
#758=CARTESIAN_POINT('Vertex',(-5.5,5.4,-9.52627944163)) ;
#761=CARTESIAN_POINT('Axis2P3D Location',(-7.5,5.4,-12.9903810568)) ;
#770=CARTESIAN_POINT('Axis2P3D Location',(-7.5,5.4,-12.9903810568)) ;
#774=CARTESIAN_POINT('Vertex',(-6.375,5.4,-11.0418238983)) ;
#776=CARTESIAN_POINT('Vertex',(-8.625,5.4,-14.9389382153)) ;
#779=CARTESIAN_POINT('Axis2P3D Location',(-7.5,5.4,-12.9903810568)) ;
#789=CARTESIAN_POINT('Axis2P3D Location',(-7.5,10.,-12.9903810568)) ;
#794=CARTESIAN_POINT('Axis2P3D Location',(-7.5,10.,-12.9903810568)) ;
#798=CARTESIAN_POINT('Vertex',(-9.5,10.,-16.4544826719)) ;
#800=CARTESIAN_POINT('Vertex',(-5.5,10.,-9.52627944163)) ;
#803=CARTESIAN_POINT('Line Origine',(-5.5,7.85500000005,-9.52627944163)) ;
#808=CARTESIAN_POINT('Line Origine',(-9.5,7.85500000005,-16.4544826719)) ;
#820=CARTESIAN_POINT('Axis2P3D Location',(-7.5,10.,-12.9903810568)) ;
#832=CARTESIAN_POINT('Axis2P3D Location',(-7.5,10.,-12.9903810568)) ;
#837=CARTESIAN_POINT('Axis2P3D Location',(-7.5,-3.5527136788E-15,-12.9903810568)) ;
#841=CARTESIAN_POINT('Vertex',(-8.625,0.,-14.9389382153)) ;
#843=CARTESIAN_POINT('Vertex',(-6.375,0.,-11.0418238983)) ;
#846=CARTESIAN_POINT('Line Origine',(-8.625,-17.3,-14.9389382153)) ;
#851=CARTESIAN_POINT('Line Origine',(-6.375,-17.3,-11.0418238983)) ;
#863=CARTESIAN_POINT('Axis2P3D Location',(-7.5,-3.5527136788E-15,-12.9903810568)) ;
#875=CARTESIAN_POINT('Axis2P3D Location',(-7.5,5.4,12.9903810568)) ;
#879=CARTESIAN_POINT('Vertex',(-9.5,5.4,16.4544826719)) ;
#881=CARTESIAN_POINT('Vertex',(-5.5,5.4,9.52627944163)) ;
#884=CARTESIAN_POINT('Axis2P3D Location',(-7.5,5.4,12.9903810568)) ;
#893=CARTESIAN_POINT('Axis2P3D Location',(-7.5,5.4,12.9903810568)) ;
#897=CARTESIAN_POINT('Vertex',(-6.375,5.4,11.0418238983)) ;
#899=CARTESIAN_POINT('Vertex',(-8.625,5.4,14.9389382153)) ;
#902=CARTESIAN_POINT('Axis2P3D Location',(-7.5,5.4,12.9903810568)) ;
#912=CARTESIAN_POINT('Axis2P3D Location',(-7.5,10.,12.9903810568)) ;
#917=CARTESIAN_POINT('Axis2P3D Location',(-7.5,10.,12.9903810568)) ;
#921=CARTESIAN_POINT('Vertex',(-9.5,10.,16.4544826719)) ;
#923=CARTESIAN_POINT('Vertex',(-5.5,10.,9.52627944163)) ;
#926=CARTESIAN_POINT('Line Origine',(-5.5,7.85500000005,9.52627944163)) ;
#931=CARTESIAN_POINT('Line Origine',(-9.5,7.85500000005,16.4544826719)) ;
#943=CARTESIAN_POINT('Axis2P3D Location',(-7.5,10.,12.9903810568)) ;
#955=CARTESIAN_POINT('Axis2P3D Location',(-7.5,10.,12.9903810568)) ;
#960=CARTESIAN_POINT('Axis2P3D Location',(-7.5,0.,12.9903810568)) ;
#964=CARTESIAN_POINT('Vertex',(-8.625,0.,14.9389382153)) ;
#966=CARTESIAN_POINT('Vertex',(-6.375,0.,11.0418238983)) ;
#969=CARTESIAN_POINT('Line Origine',(-8.625,-17.3,14.9389382153)) ;
#974=CARTESIAN_POINT('Line Origine',(-6.375,-17.3,11.0418238983)) ;
#986=CARTESIAN_POINT('Axis2P3D Location',(-7.5,0.,12.9903810568)) ;
#998=CARTESIAN_POINT('Axis2P3D Location',(0.,0.,0.)) ;
#1003=CARTESIAN_POINT('Axis2P3D Location',(-1.8412343139E-15,0.,-5.24488810205E-15)) ;
#1007=CARTESIAN_POINT('Vertex',(-39.,0.,-1.47971331354E-14)) ;
#1009=CARTESIAN_POINT('Vertex',(39.,0.,-1.77882447695E-14)) ;
#1012=CARTESIAN_POINT('Axis2P3D Location',(-1.8412343139E-15,0.,-5.24488810205E-15)) ;
#1066=CARTESIAN_POINT('Axis2P3D Location',(7.1054273576E-15,-39.,-7.3633338231E-17)) ;
#1071=CARTESIAN_POINT('Line Origine',(39.25,0.25,-1.06581410364E-14)) ;
#1075=CARTESIAN_POINT('Vertex',(39.5,0.5,4.83735485663E-15)) ;
#1078=CARTESIAN_POINT('Line Origine',(-39.25,0.25,-1.7763568394E-15)) ;
#1082=CARTESIAN_POINT('Vertex',(-39.5,0.5,-4.47577572914E-14)) ;
#1085=CARTESIAN_POINT('Axis2P3D Location',(7.1054273576E-15,0.5,-7.3633338231E-17)) ;
#1097=CARTESIAN_POINT('Axis2P3D Location',(-1.7763568394E-15,-39.,-1.68043357007E-12)) ;
#1102=CARTESIAN_POINT('Axis2P3D Location',(-1.7763568394E-15,0.5,3.5527136788E-15)) ;
#1114=CARTESIAN_POINT('Axis2P3D Location',(0.,10.,0.)) ;
#1119=CARTESIAN_POINT('Axis2P3D Location',(-1.8412343139E-15,10.,-5.24488810205E-15)) ;
#1123=CARTESIAN_POINT('Vertex',(39.,10.,-1.77882447695E-14)) ;
#1125=CARTESIAN_POINT('Vertex',(-39.,10.,-1.47971331354E-14)) ;
#1128=CARTESIAN_POINT('Axis2P3D Location',(-1.8412343139E-15,10.,-5.24488810205E-15)) ;
#1182=CARTESIAN_POINT('Axis2P3D Location',(0.,5.,0.)) ;
#1187=CARTESIAN_POINT('Line Origine',(-39.5,5.,0.)) ;
#1191=CARTESIAN_POINT('Vertex',(-39.5,9.5,-4.47577572914E-14)) ;
#1194=CARTESIAN_POINT('Line Origine',(39.5,5.,4.83735485663E-15)) ;
#1198=CARTESIAN_POINT('Vertex',(39.5,9.5,4.83735485663E-15)) ;
#1201=CARTESIAN_POINT('Axis2P3D Location',(0.,9.5,0.)) ;
#1213=CARTESIAN_POINT('Axis2P3D Location',(0.,9.5,0.)) ;
#1225=CARTESIAN_POINT('Axis2P3D Location',(7.1054273576E-15,49.,-7.3633338231E-17)) ;
#1230=CARTESIAN_POINT('Line Origine',(39.25,9.75,5.3290705182E-15)) ;
#1235=CARTESIAN_POINT('Line Origine',(-39.25,9.75,-6.92779167366E-14)) ;
#1247=CARTESIAN_POINT('Axis2P3D Location',(-1.7763568394E-15,49.,-1.68043357007E-12)) ;
#8=PRODUCT_RELATED_PRODUCT_CATEGORY('part',$,(#5)) ;
#15=UNCERTAINTY_MEASURE_WITH_UNIT(LENGTH_MEASURE(0.005),#12,'distance_accuracy_value','CONFUSED CURVE UNCERTAINTY') ;
#29=STYLED_ITEM(' ',(#28),#21) ;
#28=PRESENTATION_STYLE_ASSIGNMENT((#27)) ;
#27=SURFACE_STYLE_USAGE(.BOTH.,#26) ;
#26=SURFACE_SIDE_STYLE(' ',(#25)) ;
#25=SURFACE_STYLE_FILL_AREA(#24) ;
#24=FILL_AREA_STYLE(' ',(#23)) ;
#23=FILL_AREA_STYLE_COLOUR(' ',#22) ;
#89=VECTOR('Line Direction',#88,1.) ;
#94=VECTOR('Line Direction',#93,1.) ;
#132=VECTOR('Line Direction',#131,1.) ;
#146=VECTOR('Line Direction',#145,1.) ;
#189=VECTOR('Line Direction',#188,1.) ;
#203=VECTOR('Line Direction',#202,1.) ;
#288=VECTOR('Line Direction',#287,1.) ;
#304=VECTOR('Line Direction',#303,1.) ;
#345=VECTOR('Line Direction',#344,1.) ;
#361=VECTOR('Line Direction',#360,1.) ;
#402=VECTOR('Line Direction',#401,1.) ;
#418=VECTOR('Line Direction',#417,1.) ;
#459=VECTOR('Line Direction',#458,1.) ;
#475=VECTOR('Line Direction',#474,1.) ;
#525=VECTOR('Line Direction',#524,1.) ;
#530=VECTOR('Line Direction',#529,1.) ;
#568=VECTOR('Line Direction',#567,1.) ;
#573=VECTOR('Line Direction',#572,1.) ;
#602=VECTOR('Line Direction',#601,1.) ;
#618=VECTOR('Line Direction',#617,1.) ;
#659=VECTOR('Line Direction',#658,1.) ;
#675=VECTOR('Line Direction',#674,1.) ;
#725=VECTOR('Line Direction',#724,1.) ;
#730=VECTOR('Line Direction',#729,1.) ;
#805=VECTOR('Line Direction',#804,1.) ;
#810=VECTOR('Line Direction',#809,1.) ;
#848=VECTOR('Line Direction',#847,1.) ;
#853=VECTOR('Line Direction',#852,1.) ;
#928=VECTOR('Line Direction',#927,1.) ;
#933=VECTOR('Line Direction',#932,1.) ;
#971=VECTOR('Line Direction',#970,1.) ;
#976=VECTOR('Line Direction',#975,1.) ;
#1073=VECTOR('Line Direction',#1072,1.) ;
#1080=VECTOR('Line Direction',#1079,1.) ;
#1189=VECTOR('Line Direction',#1188,1.) ;
#1196=VECTOR('Line Direction',#1195,1.) ;
#1232=VECTOR('Line Direction',#1231,1.) ;
#1237=VECTOR('Line Direction',#1236,1.) ;
#32=DIRECTION('Axis2P3D Direction',(0.,-1.,0.)) ;
#33=DIRECTION('Axis2P3D XDirection',(1.,0.,0.)) ;
#37=DIRECTION('Axis2P3D Direction',(0.,-1.,0.)) ;
#46=DIRECTION('Axis2P3D Direction',(0.,-1.,0.)) ;
#55=DIRECTION('Axis2P3D Direction',(0.,-1.,0.)) ;
#64=DIRECTION('Axis2P3D Direction',(0.,-1.,0.)) ;
#74=DIRECTION('Axis2P3D Direction',(0.,-1.,-0.)) ;
#75=DIRECTION('Axis2P3D XDirection',(1.,0.,0.)) ;
#79=DIRECTION('Axis2P3D Direction',(0.,-1.,-0.)) ;
#88=DIRECTION('Vector Direction',(0.,-1.,0.)) ;
#93=DIRECTION('Vector Direction',(0.,-1.,0.)) ;
#105=DIRECTION('Axis2P3D Direction',(0.,-1.,-0.)) ;
#117=DIRECTION('Axis2P3D Direction',(-0.,1.,0.)) ;
#118=DIRECTION('Axis2P3D XDirection',(1.,0.,0.)) ;
#122=DIRECTION('Axis2P3D Direction',(-0.,1.,0.)) ;
#131=DIRECTION('Vector Direction',(0.,1.,0.)) ;
#138=DIRECTION('Axis2P3D Direction',(-0.,1.,0.)) ;
#145=DIRECTION('Vector Direction',(0.,1.,0.)) ;
#157=DIRECTION('Axis2P3D Direction',(-0.,1.,0.)) ;
#162=DIRECTION('Axis2P3D Direction',(-0.,1.,0.)) ;
#174=DIRECTION('Axis2P3D Direction',(-0.,1.,0.)) ;
#175=DIRECTION('Axis2P3D XDirection',(1.,0.,0.)) ;
#179=DIRECTION('Axis2P3D Direction',(-0.,1.,0.)) ;
#188=DIRECTION('Vector Direction',(0.,1.,0.)) ;
#195=DIRECTION('Axis2P3D Direction',(-0.,1.,0.)) ;
#202=DIRECTION('Vector Direction',(0.,1.,0.)) ;
#214=DIRECTION('Axis2P3D Direction',(-0.,1.,0.)) ;
#219=DIRECTION('Axis2P3D Direction',(-0.,1.,0.)) ;
#231=DIRECTION('Axis2P3D Direction',(-0.,1.,0.)) ;
#232=DIRECTION('Axis2P3D XDirection',(1.,0.,0.)) ;
#240=DIRECTION('Axis2P3D Direction',(-0.,1.,0.)) ;
#249=DIRECTION('Axis2P3D Direction',(-0.,1.,0.)) ;
#263=DIRECTION('Axis2P3D Direction',(-0.,1.,0.)) ;
#272=DIRECTION('Axis2P3D Direction',(-0.,1.,0.)) ;
#282=DIRECTION('Axis2P3D Direction',(-0.,1.,0.)) ;
#283=DIRECTION('Axis2P3D XDirection',(1.,0.,0.)) ;
#287=DIRECTION('Vector Direction',(0.,1.,0.)) ;
#296=DIRECTION('Axis2P3D Direction',(-0.,1.,0.)) ;
#303=DIRECTION('Vector Direction',(0.,1.,0.)) ;
#310=DIRECTION('Axis2P3D Direction',(-0.,1.,0.)) ;
#322=DIRECTION('Axis2P3D Direction',(-0.,1.,0.)) ;
#327=DIRECTION('Axis2P3D Direction',(-0.,1.,0.)) ;
#339=DIRECTION('Axis2P3D Direction',(-0.,1.,0.)) ;
#340=DIRECTION('Axis2P3D XDirection',(1.,0.,0.)) ;
#344=DIRECTION('Vector Direction',(0.,1.,0.)) ;
#353=DIRECTION('Axis2P3D Direction',(-0.,1.,0.)) ;
#360=DIRECTION('Vector Direction',(0.,1.,0.)) ;
#367=DIRECTION('Axis2P3D Direction',(-0.,1.,0.)) ;
#379=DIRECTION('Axis2P3D Direction',(-0.,1.,0.)) ;
#384=DIRECTION('Axis2P3D Direction',(-0.,1.,0.)) ;
#396=DIRECTION('Axis2P3D Direction',(-0.,1.,0.)) ;
#397=DIRECTION('Axis2P3D XDirection',(1.,0.,0.)) ;
#401=DIRECTION('Vector Direction',(0.,1.,0.)) ;
#410=DIRECTION('Axis2P3D Direction',(-0.,1.,0.)) ;
#417=DIRECTION('Vector Direction',(0.,1.,0.)) ;
#424=DIRECTION('Axis2P3D Direction',(-0.,1.,0.)) ;
#436=DIRECTION('Axis2P3D Direction',(-0.,1.,0.)) ;
#441=DIRECTION('Axis2P3D Direction',(-0.,1.,0.)) ;
#453=DIRECTION('Axis2P3D Direction',(-0.,1.,0.)) ;
#454=DIRECTION('Axis2P3D XDirection',(1.,0.,0.)) ;
#458=DIRECTION('Vector Direction',(0.,1.,0.)) ;
#467=DIRECTION('Axis2P3D Direction',(-0.,1.,0.)) ;
#474=DIRECTION('Vector Direction',(0.,1.,0.)) ;
#481=DIRECTION('Axis2P3D Direction',(-0.,1.,0.)) ;
#493=DIRECTION('Axis2P3D Direction',(-0.,1.,0.)) ;
#498=DIRECTION('Axis2P3D Direction',(-0.,1.,0.)) ;
#510=DIRECTION('Axis2P3D Direction',(-0.,1.,0.)) ;
#511=DIRECTION('Axis2P3D XDirection',(1.,0.,0.)) ;
#515=DIRECTION('Axis2P3D Direction',(-0.,1.,0.)) ;
#524=DIRECTION('Vector Direction',(0.,1.,0.)) ;
#529=DIRECTION('Vector Direction',(0.,1.,0.)) ;
#541=DIRECTION('Axis2P3D Direction',(-0.,1.,0.)) ;
#553=DIRECTION('Axis2P3D Direction',(-0.,1.,0.)) ;
#554=DIRECTION('Axis2P3D XDirection',(1.,0.,0.)) ;
#558=DIRECTION('Axis2P3D Direction',(-0.,1.,0.)) ;
#567=DIRECTION('Vector Direction',(0.,1.,0.)) ;
#572=DIRECTION('Vector Direction',(0.,1.,0.)) ;
#584=DIRECTION('Axis2P3D Direction',(-0.,1.,0.)) ;
#596=DIRECTION('Axis2P3D Direction',(-0.,1.,0.)) ;
#597=DIRECTION('Axis2P3D XDirection',(1.,0.,0.)) ;
#601=DIRECTION('Vector Direction',(0.,1.,0.)) ;
#610=DIRECTION('Axis2P3D Direction',(-0.,1.,0.)) ;
#617=DIRECTION('Vector Direction',(0.,1.,0.)) ;
#624=DIRECTION('Axis2P3D Direction',(-0.,1.,0.)) ;
#636=DIRECTION('Axis2P3D Direction',(-0.,1.,0.)) ;
#641=DIRECTION('Axis2P3D Direction',(-0.,1.,0.)) ;
#653=DIRECTION('Axis2P3D Direction',(-0.,1.,0.)) ;
#654=DIRECTION('Axis2P3D XDirection',(1.,0.,0.)) ;
#658=DIRECTION('Vector Direction',(0.,1.,0.)) ;
#667=DIRECTION('Axis2P3D Direction',(-0.,1.,0.)) ;
#674=DIRECTION('Vector Direction',(0.,1.,0.)) ;
#681=DIRECTION('Axis2P3D Direction',(-0.,1.,0.)) ;
#693=DIRECTION('Axis2P3D Direction',(-0.,1.,0.)) ;
#698=DIRECTION('Axis2P3D Direction',(-0.,1.,0.)) ;
#710=DIRECTION('Axis2P3D Direction',(0.,-1.,-0.)) ;
#711=DIRECTION('Axis2P3D XDirection',(1.,0.,0.)) ;
#715=DIRECTION('Axis2P3D Direction',(0.,-1.,-0.)) ;
#724=DIRECTION('Vector Direction',(0.,-1.,0.)) ;
#729=DIRECTION('Vector Direction',(0.,-1.,0.)) ;
#741=DIRECTION('Axis2P3D Direction',(0.,-1.,-0.)) ;
#753=DIRECTION('Axis2P3D Direction',(0.,-1.,0.)) ;
#762=DIRECTION('Axis2P3D Direction',(0.,-1.,0.)) ;
#771=DIRECTION('Axis2P3D Direction',(0.,-1.,0.)) ;
#780=DIRECTION('Axis2P3D Direction',(0.,-1.,0.)) ;
#790=DIRECTION('Axis2P3D Direction',(0.,-1.,-0.)) ;
#791=DIRECTION('Axis2P3D XDirection',(-0.5,0.,-0.866025403784)) ;
#795=DIRECTION('Axis2P3D Direction',(0.,-1.,-0.)) ;
#804=DIRECTION('Vector Direction',(0.,-1.,0.)) ;
#809=DIRECTION('Vector Direction',(0.,-1.,0.)) ;
#821=DIRECTION('Axis2P3D Direction',(0.,-1.,-0.)) ;
#833=DIRECTION('Axis2P3D Direction',(0.,-1.,-0.)) ;
#834=DIRECTION('Axis2P3D XDirection',(-0.5,0.,-0.866025403784)) ;
#838=DIRECTION('Axis2P3D Direction',(0.,-1.,-0.)) ;
#847=DIRECTION('Vector Direction',(0.,-1.,0.)) ;
#852=DIRECTION('Vector Direction',(0.,-1.,0.)) ;
#864=DIRECTION('Axis2P3D Direction',(0.,-1.,-0.)) ;
#876=DIRECTION('Axis2P3D Direction',(0.,-1.,0.)) ;
#885=DIRECTION('Axis2P3D Direction',(0.,-1.,0.)) ;
#894=DIRECTION('Axis2P3D Direction',(0.,-1.,0.)) ;
#903=DIRECTION('Axis2P3D Direction',(0.,-1.,0.)) ;
#913=DIRECTION('Axis2P3D Direction',(-0.,-1.,0.)) ;
#914=DIRECTION('Axis2P3D XDirection',(-0.5,0.,0.866025403784)) ;
#918=DIRECTION('Axis2P3D Direction',(-0.,-1.,0.)) ;
#927=DIRECTION('Vector Direction',(0.,-1.,0.)) ;
#932=DIRECTION('Vector Direction',(0.,-1.,0.)) ;
#944=DIRECTION('Axis2P3D Direction',(-0.,-1.,0.)) ;
#956=DIRECTION('Axis2P3D Direction',(-0.,-1.,0.)) ;
#957=DIRECTION('Axis2P3D XDirection',(-0.5,0.,0.866025403784)) ;
#961=DIRECTION('Axis2P3D Direction',(-0.,-1.,0.)) ;
#970=DIRECTION('Vector Direction',(0.,-1.,0.)) ;
#975=DIRECTION('Vector Direction',(0.,-1.,0.)) ;
#987=DIRECTION('Axis2P3D Direction',(-0.,-1.,0.)) ;
#999=DIRECTION('Axis2P3D Direction',(0.,1.,-0.)) ;
#1000=DIRECTION('Axis2P3D XDirection',(-1.,0.,0.)) ;
#1004=DIRECTION('Axis2P3D Direction',(0.,1.,-0.)) ;
#1013=DIRECTION('Axis2P3D Direction',(0.,1.,-0.)) ;
#1067=DIRECTION('Axis2P3D Direction',(0.,1.,0.)) ;
#1068=DIRECTION('Axis2P3D XDirection',(0.5,0.,0.866025403784)) ;
#1072=DIRECTION('Vector Direction',(0.707106781187,0.707106781187,0.)) ;
#1079=DIRECTION('Vector Direction',(-0.707106781187,0.707106781187,-5.02429586779E-15)) ;
#1086=DIRECTION('Axis2P3D Direction',(-0.,1.,0.)) ;
#1098=DIRECTION('Axis2P3D Direction',(0.,1.,4.26325641456E-14)) ;
#1099=DIRECTION('Axis2P3D XDirection',(-1.,0.,-8.99421184506E-17)) ;
#1103=DIRECTION('Axis2P3D Direction',(-3.83446313424E-30,1.,4.26325641456E-14)) ;
#1115=DIRECTION('Axis2P3D Direction',(0.,1.,-0.)) ;
#1116=DIRECTION('Axis2P3D XDirection',(-1.,0.,0.)) ;
#1120=DIRECTION('Axis2P3D Direction',(0.,1.,-0.)) ;
#1129=DIRECTION('Axis2P3D Direction',(0.,1.,-0.)) ;
#1183=DIRECTION('Axis2P3D Direction',(0.,1.,0.)) ;
#1184=DIRECTION('Axis2P3D XDirection',(-1.,0.,0.)) ;
#1188=DIRECTION('Vector Direction',(0.,1.,0.)) ;
#1195=DIRECTION('Vector Direction',(0.,1.,0.)) ;
#1202=DIRECTION('Axis2P3D Direction',(0.,1.,0.)) ;
#1214=DIRECTION('Axis2P3D Direction',(0.,1.,0.)) ;
#1226=DIRECTION('Axis2P3D Direction',(0.,-1.,0.)) ;
#1227=DIRECTION('Axis2P3D XDirection',(0.5,0.,0.866025403784)) ;
#1231=DIRECTION('Vector Direction',(0.707106781187,-0.707106781187,5.02429586779E-15)) ;
#1236=DIRECTION('Vector Direction',(-0.707106781187,-0.707106781187,-5.02429586779E-15)) ;
#1248=DIRECTION('Axis2P3D Direction',(0.,-1.,4.26325641456E-14)) ;
#1249=DIRECTION('Axis2P3D XDirection',(-1.,0.,-8.99421184506E-17)) ;
#1260=SHAPE_REPRESENTATION_RELATIONSHIP(' ',' ',#19,#1259) ;
#18=AXIS2_PLACEMENT_3D(' ',#17,$,$) ;
#34=AXIS2_PLACEMENT_3D('Plane Axis2P3D',#31,#32,#33) ;
#38=AXIS2_PLACEMENT_3D('Circle Axis2P3D',#36,#37,$) ;
#47=AXIS2_PLACEMENT_3D('Circle Axis2P3D',#45,#46,$) ;
#56=AXIS2_PLACEMENT_3D('Circle Axis2P3D',#54,#55,$) ;
#65=AXIS2_PLACEMENT_3D('Circle Axis2P3D',#63,#64,$) ;
#76=AXIS2_PLACEMENT_3D('Cylinder Axis2P3D',#73,#74,#75) ;
#80=AXIS2_PLACEMENT_3D('Circle Axis2P3D',#78,#79,$) ;
#106=AXIS2_PLACEMENT_3D('Circle Axis2P3D',#104,#105,$) ;
#119=AXIS2_PLACEMENT_3D('Cylinder Axis2P3D',#116,#117,#118) ;
#123=AXIS2_PLACEMENT_3D('Circle Axis2P3D',#121,#122,$) ;
#139=AXIS2_PLACEMENT_3D('Circle Axis2P3D',#137,#138,$) ;
#158=AXIS2_PLACEMENT_3D('Circle Axis2P3D',#156,#157,$) ;
#163=AXIS2_PLACEMENT_3D('Circle Axis2P3D',#161,#162,$) ;
#176=AXIS2_PLACEMENT_3D('Cylinder Axis2P3D',#173,#174,#175) ;
#180=AXIS2_PLACEMENT_3D('Circle Axis2P3D',#178,#179,$) ;
#196=AXIS2_PLACEMENT_3D('Circle Axis2P3D',#194,#195,$) ;
#215=AXIS2_PLACEMENT_3D('Circle Axis2P3D',#213,#214,$) ;
#220=AXIS2_PLACEMENT_3D('Circle Axis2P3D',#218,#219,$) ;
#233=AXIS2_PLACEMENT_3D('Plane Axis2P3D',#230,#231,#232) ;
#241=AXIS2_PLACEMENT_3D('Circle Axis2P3D',#239,#240,$) ;
#250=AXIS2_PLACEMENT_3D('Circle Axis2P3D',#248,#249,$) ;
#264=AXIS2_PLACEMENT_3D('Circle Axis2P3D',#262,#263,$) ;
#273=AXIS2_PLACEMENT_3D('Circle Axis2P3D',#271,#272,$) ;
#284=AXIS2_PLACEMENT_3D('Cylinder Axis2P3D',#281,#282,#283) ;
#297=AXIS2_PLACEMENT_3D('Circle Axis2P3D',#295,#296,$) ;
#311=AXIS2_PLACEMENT_3D('Circle Axis2P3D',#309,#310,$) ;
#323=AXIS2_PLACEMENT_3D('Circle Axis2P3D',#321,#322,$) ;
#328=AXIS2_PLACEMENT_3D('Circle Axis2P3D',#326,#327,$) ;
#341=AXIS2_PLACEMENT_3D('Cylinder Axis2P3D',#338,#339,#340) ;
#354=AXIS2_PLACEMENT_3D('Circle Axis2P3D',#352,#353,$) ;
#368=AXIS2_PLACEMENT_3D('Circle Axis2P3D',#366,#367,$) ;
#380=AXIS2_PLACEMENT_3D('Circle Axis2P3D',#378,#379,$) ;
#385=AXIS2_PLACEMENT_3D('Circle Axis2P3D',#383,#384,$) ;
#398=AXIS2_PLACEMENT_3D('Cylinder Axis2P3D',#395,#396,#397) ;
#411=AXIS2_PLACEMENT_3D('Circle Axis2P3D',#409,#410,$) ;
#425=AXIS2_PLACEMENT_3D('Circle Axis2P3D',#423,#424,$) ;
#437=AXIS2_PLACEMENT_3D('Circle Axis2P3D',#435,#436,$) ;
#442=AXIS2_PLACEMENT_3D('Circle Axis2P3D',#440,#441,$) ;
#455=AXIS2_PLACEMENT_3D('Cylinder Axis2P3D',#452,#453,#454) ;
#468=AXIS2_PLACEMENT_3D('Circle Axis2P3D',#466,#467,$) ;
#482=AXIS2_PLACEMENT_3D('Circle Axis2P3D',#480,#481,$) ;
#494=AXIS2_PLACEMENT_3D('Circle Axis2P3D',#492,#493,$) ;
#499=AXIS2_PLACEMENT_3D('Circle Axis2P3D',#497,#498,$) ;
#512=AXIS2_PLACEMENT_3D('Cylinder Axis2P3D',#509,#510,#511) ;
#516=AXIS2_PLACEMENT_3D('Circle Axis2P3D',#514,#515,$) ;
#542=AXIS2_PLACEMENT_3D('Circle Axis2P3D',#540,#541,$) ;
#555=AXIS2_PLACEMENT_3D('Cylinder Axis2P3D',#552,#553,#554) ;
#559=AXIS2_PLACEMENT_3D('Circle Axis2P3D',#557,#558,$) ;
#585=AXIS2_PLACEMENT_3D('Circle Axis2P3D',#583,#584,$) ;
#598=AXIS2_PLACEMENT_3D('Cylinder Axis2P3D',#595,#596,#597) ;
#611=AXIS2_PLACEMENT_3D('Circle Axis2P3D',#609,#610,$) ;
#625=AXIS2_PLACEMENT_3D('Circle Axis2P3D',#623,#624,$) ;
#637=AXIS2_PLACEMENT_3D('Circle Axis2P3D',#635,#636,$) ;
#642=AXIS2_PLACEMENT_3D('Circle Axis2P3D',#640,#641,$) ;
#655=AXIS2_PLACEMENT_3D('Cylinder Axis2P3D',#652,#653,#654) ;
#668=AXIS2_PLACEMENT_3D('Circle Axis2P3D',#666,#667,$) ;
#682=AXIS2_PLACEMENT_3D('Circle Axis2P3D',#680,#681,$) ;
#694=AXIS2_PLACEMENT_3D('Circle Axis2P3D',#692,#693,$) ;
#699=AXIS2_PLACEMENT_3D('Circle Axis2P3D',#697,#698,$) ;
#712=AXIS2_PLACEMENT_3D('Cylinder Axis2P3D',#709,#710,#711) ;
#716=AXIS2_PLACEMENT_3D('Circle Axis2P3D',#714,#715,$) ;
#742=AXIS2_PLACEMENT_3D('Circle Axis2P3D',#740,#741,$) ;
#754=AXIS2_PLACEMENT_3D('Circle Axis2P3D',#752,#753,$) ;
#763=AXIS2_PLACEMENT_3D('Circle Axis2P3D',#761,#762,$) ;
#772=AXIS2_PLACEMENT_3D('Circle Axis2P3D',#770,#771,$) ;
#781=AXIS2_PLACEMENT_3D('Circle Axis2P3D',#779,#780,$) ;
#792=AXIS2_PLACEMENT_3D('Cylinder Axis2P3D',#789,#790,#791) ;
#796=AXIS2_PLACEMENT_3D('Circle Axis2P3D',#794,#795,$) ;
#822=AXIS2_PLACEMENT_3D('Circle Axis2P3D',#820,#821,$) ;
#835=AXIS2_PLACEMENT_3D('Cylinder Axis2P3D',#832,#833,#834) ;
#839=AXIS2_PLACEMENT_3D('Circle Axis2P3D',#837,#838,$) ;
#865=AXIS2_PLACEMENT_3D('Circle Axis2P3D',#863,#864,$) ;
#877=AXIS2_PLACEMENT_3D('Circle Axis2P3D',#875,#876,$) ;
#886=AXIS2_PLACEMENT_3D('Circle Axis2P3D',#884,#885,$) ;
#895=AXIS2_PLACEMENT_3D('Circle Axis2P3D',#893,#894,$) ;
#904=AXIS2_PLACEMENT_3D('Circle Axis2P3D',#902,#903,$) ;
#915=AXIS2_PLACEMENT_3D('Cylinder Axis2P3D',#912,#913,#914) ;
#919=AXIS2_PLACEMENT_3D('Circle Axis2P3D',#917,#918,$) ;
#945=AXIS2_PLACEMENT_3D('Circle Axis2P3D',#943,#944,$) ;
#958=AXIS2_PLACEMENT_3D('Cylinder Axis2P3D',#955,#956,#957) ;
#962=AXIS2_PLACEMENT_3D('Circle Axis2P3D',#960,#961,$) ;
#988=AXIS2_PLACEMENT_3D('Circle Axis2P3D',#986,#987,$) ;
#1001=AXIS2_PLACEMENT_3D('Plane Axis2P3D',#998,#999,#1000) ;
#1005=AXIS2_PLACEMENT_3D('Circle Axis2P3D',#1003,#1004,$) ;
#1014=AXIS2_PLACEMENT_3D('Circle Axis2P3D',#1012,#1013,$) ;
#1069=AXIS2_PLACEMENT_3D('Cone Axis2P3D',#1066,#1067,#1068) ;
#1087=AXIS2_PLACEMENT_3D('Circle Axis2P3D',#1085,#1086,$) ;
#1100=AXIS2_PLACEMENT_3D('Cone Axis2P3D',#1097,#1098,#1099) ;
#1104=AXIS2_PLACEMENT_3D('Circle Axis2P3D',#1102,#1103,$) ;
#1117=AXIS2_PLACEMENT_3D('Plane Axis2P3D',#1114,#1115,#1116) ;
#1121=AXIS2_PLACEMENT_3D('Circle Axis2P3D',#1119,#1120,$) ;
#1130=AXIS2_PLACEMENT_3D('Circle Axis2P3D',#1128,#1129,$) ;
#1185=AXIS2_PLACEMENT_3D('Cylinder Axis2P3D',#1182,#1183,#1184) ;
#1203=AXIS2_PLACEMENT_3D('Circle Axis2P3D',#1201,#1202,$) ;
#1215=AXIS2_PLACEMENT_3D('Circle Axis2P3D',#1213,#1214,$) ;
#1228=AXIS2_PLACEMENT_3D('Cone Axis2P3D',#1225,#1226,#1227) ;
#1250=AXIS2_PLACEMENT_3D('Cone Axis2P3D',#1247,#1248,#1249) ;
#90=LINE('Line',#87,#89) ;
#95=LINE('Line',#92,#94) ;
#133=LINE('Line',#130,#132) ;
#147=LINE('Line',#144,#146) ;
#190=LINE('Line',#187,#189) ;
#204=LINE('Line',#201,#203) ;
#289=LINE('Line',#286,#288) ;
#305=LINE('Line',#302,#304) ;
#346=LINE('Line',#343,#345) ;
#362=LINE('Line',#359,#361) ;
#403=LINE('Line',#400,#402) ;
#419=LINE('Line',#416,#418) ;
#460=LINE('Line',#457,#459) ;
#476=LINE('Line',#473,#475) ;
#526=LINE('Line',#523,#525) ;
#531=LINE('Line',#528,#530) ;
#569=LINE('Line',#566,#568) ;
#574=LINE('Line',#571,#573) ;
#603=LINE('Line',#600,#602) ;
#619=LINE('Line',#616,#618) ;
#660=LINE('Line',#657,#659) ;
#676=LINE('Line',#673,#675) ;
#726=LINE('Line',#723,#725) ;
#731=LINE('Line',#728,#730) ;
#806=LINE('Line',#803,#805) ;
#811=LINE('Line',#808,#810) ;
#849=LINE('Line',#846,#848) ;
#854=LINE('Line',#851,#853) ;
#929=LINE('Line',#926,#928) ;
#934=LINE('Line',#931,#933) ;
#972=LINE('Line',#969,#971) ;
#977=LINE('Line',#974,#976) ;
#1074=LINE('Line',#1071,#1073) ;
#1081=LINE('Line',#1078,#1080) ;
#1190=LINE('Line',#1187,#1189) ;
#1197=LINE('Line',#1194,#1196) ;
#1233=LINE('Line',#1230,#1232) ;
#1238=LINE('Line',#1235,#1237) ;
#39=CIRCLE('generated circle',#38,4.) ;
#48=CIRCLE('generated circle',#47,4.) ;
#57=CIRCLE('generated circle',#56,2.25) ;
#66=CIRCLE('generated circle',#65,2.25) ;
#81=CIRCLE('generated circle',#80,2.25) ;
#107=CIRCLE('generated circle',#106,2.25) ;
#124=CIRCLE('generated circle',#123,5.5) ;
#140=CIRCLE('generated circle',#139,5.5) ;
#159=CIRCLE('generated circle',#158,5.5) ;
#164=CIRCLE('generated circle',#163,5.5) ;
#181=CIRCLE('generated circle',#180,5.5) ;
#197=CIRCLE('generated circle',#196,5.5) ;
#216=CIRCLE('generated circle',#215,5.5) ;
#221=CIRCLE('generated circle',#220,5.5) ;
#242=CIRCLE('generated circle',#241,3.3) ;
#251=CIRCLE('generated circle',#250,3.3) ;
#265=CIRCLE('generated circle',#264,3.3) ;
#274=CIRCLE('generated circle',#273,3.3) ;
#298=CIRCLE('generated circle',#297,3.) ;
#312=CIRCLE('generated circle',#311,3.) ;
#324=CIRCLE('generated circle',#323,3.) ;
#329=CIRCLE('generated circle',#328,3.) ;
#355=CIRCLE('generated circle',#354,2.) ;
#369=CIRCLE('generated circle',#368,2.) ;
#381=CIRCLE('generated circle',#380,2.) ;
#386=CIRCLE('generated circle',#385,2.) ;
#412=CIRCLE('generated circle',#411,2.) ;
#426=CIRCLE('generated circle',#425,2.) ;
#438=CIRCLE('generated circle',#437,2.) ;
#443=CIRCLE('generated circle',#442,2.) ;
#469=CIRCLE('generated circle',#468,2.) ;
#483=CIRCLE('generated circle',#482,2.) ;
#495=CIRCLE('generated circle',#494,2.) ;
#500=CIRCLE('generated circle',#499,2.) ;
#517=CIRCLE('generated circle',#516,3.3) ;
#543=CIRCLE('generated circle',#542,3.3) ;
#560=CIRCLE('generated circle',#559,3.3) ;
#586=CIRCLE('generated circle',#585,3.3) ;
#612=CIRCLE('generated circle',#611,3.) ;
#626=CIRCLE('generated circle',#625,3.) ;
#638=CIRCLE('generated circle',#637,3.) ;
#643=CIRCLE('generated circle',#642,3.) ;
#669=CIRCLE('generated circle',#668,3.) ;
#683=CIRCLE('generated circle',#682,3.) ;
#695=CIRCLE('generated circle',#694,3.) ;
#700=CIRCLE('generated circle',#699,3.) ;
#717=CIRCLE('generated circle',#716,4.) ;
#743=CIRCLE('generated circle',#742,4.) ;
#755=CIRCLE('generated circle',#754,4.) ;
#764=CIRCLE('generated circle',#763,4.) ;
#773=CIRCLE('generated circle',#772,2.25) ;
#782=CIRCLE('generated circle',#781,2.25) ;
#797=CIRCLE('generated circle',#796,4.) ;
#823=CIRCLE('generated circle',#822,4.) ;
#840=CIRCLE('generated circle',#839,2.25) ;
#866=CIRCLE('generated circle',#865,2.25) ;
#878=CIRCLE('generated circle',#877,4.) ;
#887=CIRCLE('generated circle',#886,4.) ;
#896=CIRCLE('generated circle',#895,2.25) ;
#905=CIRCLE('generated circle',#904,2.25) ;
#920=CIRCLE('generated circle',#919,4.) ;
#946=CIRCLE('generated circle',#945,4.) ;
#963=CIRCLE('generated circle',#962,2.25) ;
#989=CIRCLE('generated circle',#988,2.25) ;
#1006=CIRCLE('generated circle',#1005,39.) ;
#1015=CIRCLE('generated circle',#1014,39.) ;
#1088=CIRCLE('generated circle',#1087,39.5) ;
#1105=CIRCLE('generated circle',#1104,39.5) ;
#1122=CIRCLE('generated circle',#1121,39.) ;
#1131=CIRCLE('generated circle',#1130,39.) ;
#1204=CIRCLE('generated circle',#1203,39.5) ;
#1216=CIRCLE('generated circle',#1215,39.5) ;
#35=PLANE('',#34) ;
#234=PLANE('',#233) ;
#1002=PLANE('',#1001) ;
#1118=PLANE('',#1117) ;
#77=CYLINDRICAL_SURFACE('generated cylinder',#76,2.25) ;
#120=CYLINDRICAL_SURFACE('generated cylinder',#119,5.5) ;
#177=CYLINDRICAL_SURFACE('generated cylinder',#176,5.5) ;
#285=CYLINDRICAL_SURFACE('generated cylinder',#284,3.) ;
#342=CYLINDRICAL_SURFACE('generated cylinder',#341,2.) ;
#399=CYLINDRICAL_SURFACE('generated cylinder',#398,2.) ;
#456=CYLINDRICAL_SURFACE('generated cylinder',#455,2.) ;
#513=CYLINDRICAL_SURFACE('generated cylinder',#512,3.3) ;
#556=CYLINDRICAL_SURFACE('generated cylinder',#555,3.3) ;
#599=CYLINDRICAL_SURFACE('generated cylinder',#598,3.) ;
#656=CYLINDRICAL_SURFACE('generated cylinder',#655,3.) ;
#713=CYLINDRICAL_SURFACE('generated cylinder',#712,4.) ;
#793=CYLINDRICAL_SURFACE('generated cylinder',#792,4.) ;
#836=CYLINDRICAL_SURFACE('generated cylinder',#835,2.25) ;
#916=CYLINDRICAL_SURFACE('generated cylinder',#915,4.) ;
#959=CYLINDRICAL_SURFACE('generated cylinder',#958,2.25) ;
#1186=CYLINDRICAL_SURFACE('generated cylinder',#1185,39.5) ;
#1070=CONICAL_SURFACE('Cone',#1069,0.,0.785398163397) ;
#1101=CONICAL_SURFACE('Cone',#1100,0.,0.785398163397) ;
#1229=CONICAL_SURFACE('Cone',#1228,0.,0.785398163397) ;
#1251=CONICAL_SURFACE('Cone',#1250,0.,0.785398163397) ;
#71=FACE_BOUND('',#68,.T.) ;
#256=FACE_BOUND('',#253,.T.) ;
#279=FACE_BOUND('',#276,.T.) ;
#787=FACE_BOUND('',#784,.T.) ;
#910=FACE_BOUND('',#907,.T.) ;
#1024=FACE_BOUND('',#1021,.T.) ;
#1028=FACE_BOUND('',#1025,.T.) ;
#1032=FACE_BOUND('',#1029,.T.) ;
#1036=FACE_BOUND('',#1033,.T.) ;
#1040=FACE_BOUND('',#1037,.T.) ;
#1044=FACE_BOUND('',#1041,.T.) ;
#1048=FACE_BOUND('',#1045,.T.) ;
#1052=FACE_BOUND('',#1049,.T.) ;
#1056=FACE_BOUND('',#1053,.T.) ;
#1060=FACE_BOUND('',#1057,.T.) ;
#1064=FACE_BOUND('',#1061,.T.) ;
#1140=FACE_BOUND('',#1137,.T.) ;
#1144=FACE_BOUND('',#1141,.T.) ;
#1148=FACE_BOUND('',#1145,.T.) ;
#1152=FACE_BOUND('',#1149,.T.) ;
#1156=FACE_BOUND('',#1153,.T.) ;
#1160=FACE_BOUND('',#1157,.T.) ;
#1164=FACE_BOUND('',#1161,.T.) ;
#1168=FACE_BOUND('',#1165,.T.) ;
#1172=FACE_BOUND('',#1169,.T.) ;
#1176=FACE_BOUND('',#1173,.T.) ;
#1180=FACE_BOUND('',#1177,.T.) ;
#44=EDGE_CURVE('',#41,#43,#39,.T.) ;
#49=EDGE_CURVE('',#43,#41,#48,.T.) ;
#62=EDGE_CURVE('',#59,#61,#57,.T.) ;
#67=EDGE_CURVE('',#61,#59,#66,.T.) ;
#86=EDGE_CURVE('',#83,#85,#81,.F.) ;
#91=EDGE_CURVE('',#83,#59,#90,.F.) ;
#96=EDGE_CURVE('',#85,#61,#95,.F.) ;
#108=EDGE_CURVE('',#85,#83,#107,.F.) ;
#129=EDGE_CURVE('',#126,#128,#124,.T.) ;
#136=EDGE_CURVE('',#135,#126,#133,.F.) ;
#143=EDGE_CURVE('',#135,#142,#140,.T.) ;
#148=EDGE_CURVE('',#142,#128,#147,.F.) ;
#160=EDGE_CURVE('',#128,#126,#159,.T.) ;
#165=EDGE_CURVE('',#142,#135,#164,.T.) ;
#186=EDGE_CURVE('',#183,#185,#181,.T.) ;
#193=EDGE_CURVE('',#192,#183,#190,.F.) ;
#200=EDGE_CURVE('',#192,#199,#197,.T.) ;
#205=EDGE_CURVE('',#199,#185,#204,.F.) ;
#217=EDGE_CURVE('',#185,#183,#216,.T.) ;
#222=EDGE_CURVE('',#199,#192,#221,.T.) ;
#247=EDGE_CURVE('',#244,#246,#242,.T.) ;
#252=EDGE_CURVE('',#246,#244,#251,.T.) ;
#270=EDGE_CURVE('',#267,#269,#265,.T.) ;
#275=EDGE_CURVE('',#269,#267,#274,.T.) ;
#294=EDGE_CURVE('',#291,#293,#289,.F.) ;
#301=EDGE_CURVE('',#291,#300,#298,.T.) ;
#308=EDGE_CURVE('',#300,#307,#305,.F.) ;
#313=EDGE_CURVE('',#293,#307,#312,.T.) ;
#325=EDGE_CURVE('',#300,#291,#324,.T.) ;
#330=EDGE_CURVE('',#307,#293,#329,.T.) ;
#351=EDGE_CURVE('',#348,#350,#346,.F.) ;
#358=EDGE_CURVE('',#348,#357,#355,.T.) ;
#365=EDGE_CURVE('',#357,#364,#362,.F.) ;
#370=EDGE_CURVE('',#350,#364,#369,.T.) ;
#382=EDGE_CURVE('',#357,#348,#381,.T.) ;
#387=EDGE_CURVE('',#364,#350,#386,.T.) ;
#408=EDGE_CURVE('',#405,#407,#403,.F.) ;
#415=EDGE_CURVE('',#405,#414,#412,.T.) ;
#422=EDGE_CURVE('',#414,#421,#419,.F.) ;
#427=EDGE_CURVE('',#407,#421,#426,.T.) ;
#439=EDGE_CURVE('',#414,#405,#438,.T.) ;
#444=EDGE_CURVE('',#421,#407,#443,.T.) ;
#465=EDGE_CURVE('',#462,#464,#460,.F.) ;
#472=EDGE_CURVE('',#462,#471,#469,.T.) ;
#479=EDGE_CURVE('',#471,#478,#476,.F.) ;
#484=EDGE_CURVE('',#464,#478,#483,.T.) ;
#496=EDGE_CURVE('',#471,#462,#495,.T.) ;
#501=EDGE_CURVE('',#478,#464,#500,.T.) ;
#522=EDGE_CURVE('',#519,#521,#517,.T.) ;
#527=EDGE_CURVE('',#521,#269,#526,.F.) ;
#532=EDGE_CURVE('',#519,#267,#531,.F.) ;
#544=EDGE_CURVE('',#521,#519,#543,.T.) ;
#565=EDGE_CURVE('',#562,#564,#560,.T.) ;
#570=EDGE_CURVE('',#564,#246,#569,.F.) ;
#575=EDGE_CURVE('',#562,#244,#574,.F.) ;
#587=EDGE_CURVE('',#564,#562,#586,.T.) ;
#608=EDGE_CURVE('',#605,#607,#603,.F.) ;
#615=EDGE_CURVE('',#605,#614,#612,.T.) ;
#622=EDGE_CURVE('',#614,#621,#619,.F.) ;
#627=EDGE_CURVE('',#607,#621,#626,.T.) ;
#639=EDGE_CURVE('',#614,#605,#638,.T.) ;
#644=EDGE_CURVE('',#621,#607,#643,.T.) ;
#665=EDGE_CURVE('',#662,#664,#660,.F.) ;
#672=EDGE_CURVE('',#662,#671,#669,.T.) ;
#679=EDGE_CURVE('',#671,#678,#676,.F.) ;
#684=EDGE_CURVE('',#664,#678,#683,.T.) ;
#696=EDGE_CURVE('',#671,#662,#695,.T.) ;
#701=EDGE_CURVE('',#678,#664,#700,.T.) ;
#722=EDGE_CURVE('',#719,#721,#717,.F.) ;
#727=EDGE_CURVE('',#41,#721,#726,.F.) ;
#732=EDGE_CURVE('',#43,#719,#731,.F.) ;
#744=EDGE_CURVE('',#721,#719,#743,.F.) ;
#760=EDGE_CURVE('',#757,#759,#755,.T.) ;
#765=EDGE_CURVE('',#759,#757,#764,.T.) ;
#778=EDGE_CURVE('',#775,#777,#773,.T.) ;
#783=EDGE_CURVE('',#777,#775,#782,.T.) ;
#802=EDGE_CURVE('',#799,#801,#797,.F.) ;
#807=EDGE_CURVE('',#759,#801,#806,.F.) ;
#812=EDGE_CURVE('',#757,#799,#811,.F.) ;
#824=EDGE_CURVE('',#801,#799,#823,.F.) ;
#845=EDGE_CURVE('',#842,#844,#840,.F.) ;
#850=EDGE_CURVE('',#842,#777,#849,.F.) ;
#855=EDGE_CURVE('',#844,#775,#854,.F.) ;
#867=EDGE_CURVE('',#844,#842,#866,.F.) ;
#883=EDGE_CURVE('',#880,#882,#878,.T.) ;
#888=EDGE_CURVE('',#882,#880,#887,.T.) ;
#901=EDGE_CURVE('',#898,#900,#896,.T.) ;
#906=EDGE_CURVE('',#900,#898,#905,.T.) ;
#925=EDGE_CURVE('',#922,#924,#920,.F.) ;
#930=EDGE_CURVE('',#882,#924,#929,.F.) ;
#935=EDGE_CURVE('',#880,#922,#934,.F.) ;
#947=EDGE_CURVE('',#924,#922,#946,.F.) ;
#968=EDGE_CURVE('',#965,#967,#963,.F.) ;
#973=EDGE_CURVE('',#965,#900,#972,.F.) ;
#978=EDGE_CURVE('',#967,#898,#977,.F.) ;
#990=EDGE_CURVE('',#967,#965,#989,.F.) ;
#1011=EDGE_CURVE('',#1008,#1010,#1006,.T.) ;
#1016=EDGE_CURVE('',#1010,#1008,#1015,.T.) ;
#1077=EDGE_CURVE('',#1076,#1010,#1074,.F.) ;
#1084=EDGE_CURVE('',#1083,#1008,#1081,.F.) ;
#1089=EDGE_CURVE('',#1076,#1083,#1088,.T.) ;
#1106=EDGE_CURVE('',#1083,#1076,#1105,.T.) ;
#1127=EDGE_CURVE('',#1124,#1126,#1122,.T.) ;
#1132=EDGE_CURVE('',#1126,#1124,#1131,.T.) ;
#1193=EDGE_CURVE('',#1083,#1192,#1190,.T.) ;
#1200=EDGE_CURVE('',#1076,#1199,#1197,.T.) ;
#1205=EDGE_CURVE('',#1192,#1199,#1204,.T.) ;
#1217=EDGE_CURVE('',#1199,#1192,#1216,.T.) ;
#1234=EDGE_CURVE('',#1124,#1199,#1233,.T.) ;
#1239=EDGE_CURVE('',#1126,#1192,#1238,.T.) ;
#30=CLOSED_SHELL('Closed Shell',(#72,#103,#115,#155,#172,#212,#229,#257,#280,#320,#337,#377,#394,#434,#451,#491,#508,#539,#551,#582,#594,#634,#651,#691,#708,#739,#751,#788,#819,#831,#862,#874,#911,#942,#954,#985,#997,#1065,#1096,#1113,#1181,#1212,#1224,#1246,#1258)) ;
#51=ORIENTED_EDGE('',*,*,#44,.F.) ;
#52=ORIENTED_EDGE('',*,*,#49,.F.) ;
#69=ORIENTED_EDGE('',*,*,#62,.T.) ;
#70=ORIENTED_EDGE('',*,*,#67,.T.) ;
#98=ORIENTED_EDGE('',*,*,#86,.F.) ;
#99=ORIENTED_EDGE('',*,*,#91,.T.) ;
#100=ORIENTED_EDGE('',*,*,#67,.F.) ;
#101=ORIENTED_EDGE('',*,*,#96,.F.) ;
#110=ORIENTED_EDGE('',*,*,#108,.F.) ;
#111=ORIENTED_EDGE('',*,*,#96,.T.) ;
#112=ORIENTED_EDGE('',*,*,#62,.F.) ;
#113=ORIENTED_EDGE('',*,*,#91,.F.) ;
#150=ORIENTED_EDGE('',*,*,#129,.F.) ;
#151=ORIENTED_EDGE('',*,*,#136,.F.) ;
#152=ORIENTED_EDGE('',*,*,#143,.T.) ;
#153=ORIENTED_EDGE('',*,*,#148,.T.) ;
#167=ORIENTED_EDGE('',*,*,#160,.F.) ;
#168=ORIENTED_EDGE('',*,*,#148,.F.) ;
#169=ORIENTED_EDGE('',*,*,#165,.T.) ;
#170=ORIENTED_EDGE('',*,*,#136,.T.) ;
#207=ORIENTED_EDGE('',*,*,#186,.F.) ;
#208=ORIENTED_EDGE('',*,*,#193,.F.) ;
#209=ORIENTED_EDGE('',*,*,#200,.T.) ;
#210=ORIENTED_EDGE('',*,*,#205,.T.) ;
#224=ORIENTED_EDGE('',*,*,#217,.F.) ;
#225=ORIENTED_EDGE('',*,*,#205,.F.) ;
#226=ORIENTED_EDGE('',*,*,#222,.T.) ;
#227=ORIENTED_EDGE('',*,*,#193,.T.) ;
#236=ORIENTED_EDGE('',*,*,#143,.F.) ;
#237=ORIENTED_EDGE('',*,*,#165,.F.) ;
#254=ORIENTED_EDGE('',*,*,#247,.T.) ;
#255=ORIENTED_EDGE('',*,*,#252,.T.) ;
#259=ORIENTED_EDGE('',*,*,#200,.F.) ;
#260=ORIENTED_EDGE('',*,*,#222,.F.) ;
#277=ORIENTED_EDGE('',*,*,#270,.T.) ;
#278=ORIENTED_EDGE('',*,*,#275,.T.) ;
#315=ORIENTED_EDGE('',*,*,#294,.F.) ;
#316=ORIENTED_EDGE('',*,*,#301,.T.) ;
#317=ORIENTED_EDGE('',*,*,#308,.T.) ;
#318=ORIENTED_EDGE('',*,*,#313,.F.) ;
#332=ORIENTED_EDGE('',*,*,#308,.F.) ;
#333=ORIENTED_EDGE('',*,*,#325,.T.) ;
#334=ORIENTED_EDGE('',*,*,#294,.T.) ;
#335=ORIENTED_EDGE('',*,*,#330,.F.) ;
#372=ORIENTED_EDGE('',*,*,#351,.F.) ;
#373=ORIENTED_EDGE('',*,*,#358,.T.) ;
#374=ORIENTED_EDGE('',*,*,#365,.T.) ;
#375=ORIENTED_EDGE('',*,*,#370,.F.) ;
#389=ORIENTED_EDGE('',*,*,#365,.F.) ;
#390=ORIENTED_EDGE('',*,*,#382,.T.) ;
#391=ORIENTED_EDGE('',*,*,#351,.T.) ;
#392=ORIENTED_EDGE('',*,*,#387,.F.) ;
#429=ORIENTED_EDGE('',*,*,#408,.F.) ;
#430=ORIENTED_EDGE('',*,*,#415,.T.) ;
#431=ORIENTED_EDGE('',*,*,#422,.T.) ;
#432=ORIENTED_EDGE('',*,*,#427,.F.) ;
#446=ORIENTED_EDGE('',*,*,#422,.F.) ;
#447=ORIENTED_EDGE('',*,*,#439,.T.) ;
#448=ORIENTED_EDGE('',*,*,#408,.T.) ;
#449=ORIENTED_EDGE('',*,*,#444,.F.) ;
#486=ORIENTED_EDGE('',*,*,#465,.F.) ;
#487=ORIENTED_EDGE('',*,*,#472,.T.) ;
#488=ORIENTED_EDGE('',*,*,#479,.T.) ;
#489=ORIENTED_EDGE('',*,*,#484,.F.) ;
#503=ORIENTED_EDGE('',*,*,#479,.F.) ;
#504=ORIENTED_EDGE('',*,*,#496,.T.) ;
#505=ORIENTED_EDGE('',*,*,#465,.T.) ;
#506=ORIENTED_EDGE('',*,*,#501,.F.) ;
#534=ORIENTED_EDGE('',*,*,#522,.T.) ;
#535=ORIENTED_EDGE('',*,*,#527,.T.) ;
#536=ORIENTED_EDGE('',*,*,#270,.F.) ;
#537=ORIENTED_EDGE('',*,*,#532,.F.) ;
#546=ORIENTED_EDGE('',*,*,#544,.T.) ;
#547=ORIENTED_EDGE('',*,*,#532,.T.) ;
#548=ORIENTED_EDGE('',*,*,#275,.F.) ;
#549=ORIENTED_EDGE('',*,*,#527,.F.) ;
#577=ORIENTED_EDGE('',*,*,#565,.T.) ;
#578=ORIENTED_EDGE('',*,*,#570,.T.) ;
#579=ORIENTED_EDGE('',*,*,#247,.F.) ;
#580=ORIENTED_EDGE('',*,*,#575,.F.) ;
#589=ORIENTED_EDGE('',*,*,#587,.T.) ;
#590=ORIENTED_EDGE('',*,*,#575,.T.) ;
#591=ORIENTED_EDGE('',*,*,#252,.F.) ;
#592=ORIENTED_EDGE('',*,*,#570,.F.) ;
#629=ORIENTED_EDGE('',*,*,#608,.F.) ;
#630=ORIENTED_EDGE('',*,*,#615,.T.) ;
#631=ORIENTED_EDGE('',*,*,#622,.T.) ;
#632=ORIENTED_EDGE('',*,*,#627,.F.) ;
#646=ORIENTED_EDGE('',*,*,#622,.F.) ;
#647=ORIENTED_EDGE('',*,*,#639,.T.) ;
#648=ORIENTED_EDGE('',*,*,#608,.T.) ;
#649=ORIENTED_EDGE('',*,*,#644,.F.) ;
#686=ORIENTED_EDGE('',*,*,#665,.F.) ;
#687=ORIENTED_EDGE('',*,*,#672,.T.) ;
#688=ORIENTED_EDGE('',*,*,#679,.T.) ;
#689=ORIENTED_EDGE('',*,*,#684,.F.) ;
#703=ORIENTED_EDGE('',*,*,#679,.F.) ;
#704=ORIENTED_EDGE('',*,*,#696,.T.) ;
#705=ORIENTED_EDGE('',*,*,#665,.T.) ;
#706=ORIENTED_EDGE('',*,*,#701,.F.) ;
#734=ORIENTED_EDGE('',*,*,#722,.T.) ;
#735=ORIENTED_EDGE('',*,*,#727,.F.) ;
#736=ORIENTED_EDGE('',*,*,#44,.T.) ;
#737=ORIENTED_EDGE('',*,*,#732,.T.) ;
#746=ORIENTED_EDGE('',*,*,#744,.T.) ;
#747=ORIENTED_EDGE('',*,*,#732,.F.) ;
#748=ORIENTED_EDGE('',*,*,#49,.T.) ;
#749=ORIENTED_EDGE('',*,*,#727,.T.) ;
#767=ORIENTED_EDGE('',*,*,#760,.F.) ;
#768=ORIENTED_EDGE('',*,*,#765,.F.) ;
#785=ORIENTED_EDGE('',*,*,#778,.T.) ;
#786=ORIENTED_EDGE('',*,*,#783,.T.) ;
#814=ORIENTED_EDGE('',*,*,#802,.T.) ;
#815=ORIENTED_EDGE('',*,*,#807,.F.) ;
#816=ORIENTED_EDGE('',*,*,#765,.T.) ;
#817=ORIENTED_EDGE('',*,*,#812,.T.) ;
#826=ORIENTED_EDGE('',*,*,#824,.T.) ;
#827=ORIENTED_EDGE('',*,*,#812,.F.) ;
#828=ORIENTED_EDGE('',*,*,#760,.T.) ;
#829=ORIENTED_EDGE('',*,*,#807,.T.) ;
#857=ORIENTED_EDGE('',*,*,#845,.F.) ;
#858=ORIENTED_EDGE('',*,*,#850,.T.) ;
#859=ORIENTED_EDGE('',*,*,#778,.F.) ;
#860=ORIENTED_EDGE('',*,*,#855,.F.) ;
#869=ORIENTED_EDGE('',*,*,#867,.F.) ;
#870=ORIENTED_EDGE('',*,*,#855,.T.) ;
#871=ORIENTED_EDGE('',*,*,#783,.F.) ;
#872=ORIENTED_EDGE('',*,*,#850,.F.) ;
#890=ORIENTED_EDGE('',*,*,#883,.F.) ;
#891=ORIENTED_EDGE('',*,*,#888,.F.) ;
#908=ORIENTED_EDGE('',*,*,#901,.T.) ;
#909=ORIENTED_EDGE('',*,*,#906,.T.) ;
#937=ORIENTED_EDGE('',*,*,#925,.T.) ;
#938=ORIENTED_EDGE('',*,*,#930,.F.) ;
#939=ORIENTED_EDGE('',*,*,#888,.T.) ;
#940=ORIENTED_EDGE('',*,*,#935,.T.) ;
#949=ORIENTED_EDGE('',*,*,#947,.T.) ;
#950=ORIENTED_EDGE('',*,*,#935,.F.) ;
#951=ORIENTED_EDGE('',*,*,#883,.T.) ;
#952=ORIENTED_EDGE('',*,*,#930,.T.) ;
#980=ORIENTED_EDGE('',*,*,#968,.F.) ;
#981=ORIENTED_EDGE('',*,*,#973,.T.) ;
#982=ORIENTED_EDGE('',*,*,#901,.F.) ;
#983=ORIENTED_EDGE('',*,*,#978,.F.) ;
#992=ORIENTED_EDGE('',*,*,#990,.F.) ;
#993=ORIENTED_EDGE('',*,*,#978,.T.) ;
#994=ORIENTED_EDGE('',*,*,#906,.F.) ;
#995=ORIENTED_EDGE('',*,*,#973,.F.) ;
#1018=ORIENTED_EDGE('',*,*,#1011,.F.) ;
#1019=ORIENTED_EDGE('',*,*,#1016,.F.) ;
#1022=ORIENTED_EDGE('',*,*,#108,.T.) ;
#1023=ORIENTED_EDGE('',*,*,#86,.T.) ;
#1026=ORIENTED_EDGE('',*,*,#684,.T.) ;
#1027=ORIENTED_EDGE('',*,*,#701,.T.) ;
#1030=ORIENTED_EDGE('',*,*,#627,.T.) ;
#1031=ORIENTED_EDGE('',*,*,#644,.T.) ;
#1034=ORIENTED_EDGE('',*,*,#160,.T.) ;
#1035=ORIENTED_EDGE('',*,*,#129,.T.) ;
#1038=ORIENTED_EDGE('',*,*,#217,.T.) ;
#1039=ORIENTED_EDGE('',*,*,#186,.T.) ;
#1042=ORIENTED_EDGE('',*,*,#484,.T.) ;
#1043=ORIENTED_EDGE('',*,*,#501,.T.) ;
#1046=ORIENTED_EDGE('',*,*,#427,.T.) ;
#1047=ORIENTED_EDGE('',*,*,#444,.T.) ;
#1050=ORIENTED_EDGE('',*,*,#370,.T.) ;
#1051=ORIENTED_EDGE('',*,*,#387,.T.) ;
#1054=ORIENTED_EDGE('',*,*,#313,.T.) ;
#1055=ORIENTED_EDGE('',*,*,#330,.T.) ;
#1058=ORIENTED_EDGE('',*,*,#867,.T.) ;
#1059=ORIENTED_EDGE('',*,*,#845,.T.) ;
#1062=ORIENTED_EDGE('',*,*,#990,.T.) ;
#1063=ORIENTED_EDGE('',*,*,#968,.T.) ;
#1091=ORIENTED_EDGE('',*,*,#1077,.T.) ;
#1092=ORIENTED_EDGE('',*,*,#1016,.T.) ;
#1093=ORIENTED_EDGE('',*,*,#1084,.F.) ;
#1094=ORIENTED_EDGE('',*,*,#1089,.F.) ;
#1108=ORIENTED_EDGE('',*,*,#1084,.T.) ;
#1109=ORIENTED_EDGE('',*,*,#1011,.T.) ;
#1110=ORIENTED_EDGE('',*,*,#1077,.F.) ;
#1111=ORIENTED_EDGE('',*,*,#1106,.F.) ;
#1134=ORIENTED_EDGE('',*,*,#1127,.T.) ;
#1135=ORIENTED_EDGE('',*,*,#1132,.T.) ;
#1138=ORIENTED_EDGE('',*,*,#722,.F.) ;
#1139=ORIENTED_EDGE('',*,*,#744,.F.) ;
#1142=ORIENTED_EDGE('',*,*,#696,.F.) ;
#1143=ORIENTED_EDGE('',*,*,#672,.F.) ;
#1146=ORIENTED_EDGE('',*,*,#639,.F.) ;
#1147=ORIENTED_EDGE('',*,*,#615,.F.) ;
#1150=ORIENTED_EDGE('',*,*,#587,.F.) ;
#1151=ORIENTED_EDGE('',*,*,#565,.F.) ;
#1154=ORIENTED_EDGE('',*,*,#544,.F.) ;
#1155=ORIENTED_EDGE('',*,*,#522,.F.) ;
#1158=ORIENTED_EDGE('',*,*,#496,.F.) ;
#1159=ORIENTED_EDGE('',*,*,#472,.F.) ;
#1162=ORIENTED_EDGE('',*,*,#439,.F.) ;
#1163=ORIENTED_EDGE('',*,*,#415,.F.) ;
#1166=ORIENTED_EDGE('',*,*,#382,.F.) ;
#1167=ORIENTED_EDGE('',*,*,#358,.F.) ;
#1170=ORIENTED_EDGE('',*,*,#325,.F.) ;
#1171=ORIENTED_EDGE('',*,*,#301,.F.) ;
#1174=ORIENTED_EDGE('',*,*,#802,.F.) ;
#1175=ORIENTED_EDGE('',*,*,#824,.F.) ;
#1178=ORIENTED_EDGE('',*,*,#925,.F.) ;
#1179=ORIENTED_EDGE('',*,*,#947,.F.) ;
#1207=ORIENTED_EDGE('',*,*,#1193,.F.) ;
#1208=ORIENTED_EDGE('',*,*,#1106,.T.) ;
#1209=ORIENTED_EDGE('',*,*,#1200,.T.) ;
#1210=ORIENTED_EDGE('',*,*,#1205,.F.) ;
#1219=ORIENTED_EDGE('',*,*,#1200,.F.) ;
#1220=ORIENTED_EDGE('',*,*,#1089,.T.) ;
#1221=ORIENTED_EDGE('',*,*,#1193,.T.) ;
#1222=ORIENTED_EDGE('',*,*,#1217,.F.) ;
#1241=ORIENTED_EDGE('',*,*,#1234,.T.) ;
#1242=ORIENTED_EDGE('',*,*,#1217,.T.) ;
#1243=ORIENTED_EDGE('',*,*,#1239,.F.) ;
#1244=ORIENTED_EDGE('',*,*,#1127,.F.) ;
#1253=ORIENTED_EDGE('',*,*,#1239,.T.) ;
#1254=ORIENTED_EDGE('',*,*,#1205,.T.) ;
#1255=ORIENTED_EDGE('',*,*,#1234,.F.) ;
#1256=ORIENTED_EDGE('',*,*,#1132,.F.) ;
#50=EDGE_LOOP('',(#51,#52)) ;
#68=EDGE_LOOP('',(#69,#70)) ;
#97=EDGE_LOOP('',(#98,#99,#100,#101)) ;
#109=EDGE_LOOP('',(#110,#111,#112,#113)) ;
#149=EDGE_LOOP('',(#150,#151,#152,#153)) ;
#166=EDGE_LOOP('',(#167,#168,#169,#170)) ;
#206=EDGE_LOOP('',(#207,#208,#209,#210)) ;
#223=EDGE_LOOP('',(#224,#225,#226,#227)) ;
#235=EDGE_LOOP('',(#236,#237)) ;
#253=EDGE_LOOP('',(#254,#255)) ;
#258=EDGE_LOOP('',(#259,#260)) ;
#276=EDGE_LOOP('',(#277,#278)) ;
#314=EDGE_LOOP('',(#315,#316,#317,#318)) ;
#331=EDGE_LOOP('',(#332,#333,#334,#335)) ;
#371=EDGE_LOOP('',(#372,#373,#374,#375)) ;
#388=EDGE_LOOP('',(#389,#390,#391,#392)) ;
#428=EDGE_LOOP('',(#429,#430,#431,#432)) ;
#445=EDGE_LOOP('',(#446,#447,#448,#449)) ;
#485=EDGE_LOOP('',(#486,#487,#488,#489)) ;
#502=EDGE_LOOP('',(#503,#504,#505,#506)) ;
#533=EDGE_LOOP('',(#534,#535,#536,#537)) ;
#545=EDGE_LOOP('',(#546,#547,#548,#549)) ;
#576=EDGE_LOOP('',(#577,#578,#579,#580)) ;
#588=EDGE_LOOP('',(#589,#590,#591,#592)) ;
#628=EDGE_LOOP('',(#629,#630,#631,#632)) ;
#645=EDGE_LOOP('',(#646,#647,#648,#649)) ;
#685=EDGE_LOOP('',(#686,#687,#688,#689)) ;
#702=EDGE_LOOP('',(#703,#704,#705,#706)) ;
#733=EDGE_LOOP('',(#734,#735,#736,#737)) ;
#745=EDGE_LOOP('',(#746,#747,#748,#749)) ;
#766=EDGE_LOOP('',(#767,#768)) ;
#784=EDGE_LOOP('',(#785,#786)) ;
#813=EDGE_LOOP('',(#814,#815,#816,#817)) ;
#825=EDGE_LOOP('',(#826,#827,#828,#829)) ;
#856=EDGE_LOOP('',(#857,#858,#859,#860)) ;
#868=EDGE_LOOP('',(#869,#870,#871,#872)) ;
#889=EDGE_LOOP('',(#890,#891)) ;
#907=EDGE_LOOP('',(#908,#909)) ;
#936=EDGE_LOOP('',(#937,#938,#939,#940)) ;
#948=EDGE_LOOP('',(#949,#950,#951,#952)) ;
#979=EDGE_LOOP('',(#980,#981,#982,#983)) ;
#991=EDGE_LOOP('',(#992,#993,#994,#995)) ;
#1017=EDGE_LOOP('',(#1018,#1019)) ;
#1021=EDGE_LOOP('',(#1022,#1023)) ;
#1025=EDGE_LOOP('',(#1026,#1027)) ;
#1029=EDGE_LOOP('',(#1030,#1031)) ;
#1033=EDGE_LOOP('',(#1034,#1035)) ;
#1037=EDGE_LOOP('',(#1038,#1039)) ;
#1041=EDGE_LOOP('',(#1042,#1043)) ;
#1045=EDGE_LOOP('',(#1046,#1047)) ;
#1049=EDGE_LOOP('',(#1050,#1051)) ;
#1053=EDGE_LOOP('',(#1054,#1055)) ;
#1057=EDGE_LOOP('',(#1058,#1059)) ;
#1061=EDGE_LOOP('',(#1062,#1063)) ;
#1090=EDGE_LOOP('',(#1091,#1092,#1093,#1094)) ;
#1107=EDGE_LOOP('',(#1108,#1109,#1110,#1111)) ;
#1133=EDGE_LOOP('',(#1134,#1135)) ;
#1137=EDGE_LOOP('',(#1138,#1139)) ;
#1141=EDGE_LOOP('',(#1142,#1143)) ;
#1145=EDGE_LOOP('',(#1146,#1147)) ;
#1149=EDGE_LOOP('',(#1150,#1151)) ;
#1153=EDGE_LOOP('',(#1154,#1155)) ;
#1157=EDGE_LOOP('',(#1158,#1159)) ;
#1161=EDGE_LOOP('',(#1162,#1163)) ;
#1165=EDGE_LOOP('',(#1166,#1167)) ;
#1169=EDGE_LOOP('',(#1170,#1171)) ;
#1173=EDGE_LOOP('',(#1174,#1175)) ;
#1177=EDGE_LOOP('',(#1178,#1179)) ;
#1206=EDGE_LOOP('',(#1207,#1208,#1209,#1210)) ;
#1218=EDGE_LOOP('',(#1219,#1220,#1221,#1222)) ;
#1240=EDGE_LOOP('',(#1241,#1242,#1243,#1244)) ;
#1252=EDGE_LOOP('',(#1253,#1254,#1255,#1256)) ;
#21=MANIFOLD_SOLID_BREP('Hauptk\X2\00F6\X0\rper',#30) ;
#41=VERTEX_POINT('',#40) ;
#43=VERTEX_POINT('',#42) ;
#59=VERTEX_POINT('',#58) ;
#61=VERTEX_POINT('',#60) ;
#83=VERTEX_POINT('',#82) ;
#85=VERTEX_POINT('',#84) ;
#126=VERTEX_POINT('',#125) ;
#128=VERTEX_POINT('',#127) ;
#135=VERTEX_POINT('',#134) ;
#142=VERTEX_POINT('',#141) ;
#183=VERTEX_POINT('',#182) ;
#185=VERTEX_POINT('',#184) ;
#192=VERTEX_POINT('',#191) ;
#199=VERTEX_POINT('',#198) ;
#244=VERTEX_POINT('',#243) ;
#246=VERTEX_POINT('',#245) ;
#267=VERTEX_POINT('',#266) ;
#269=VERTEX_POINT('',#268) ;
#291=VERTEX_POINT('',#290) ;
#293=VERTEX_POINT('',#292) ;
#300=VERTEX_POINT('',#299) ;
#307=VERTEX_POINT('',#306) ;
#348=VERTEX_POINT('',#347) ;
#350=VERTEX_POINT('',#349) ;
#357=VERTEX_POINT('',#356) ;
#364=VERTEX_POINT('',#363) ;
#405=VERTEX_POINT('',#404) ;
#407=VERTEX_POINT('',#406) ;
#414=VERTEX_POINT('',#413) ;
#421=VERTEX_POINT('',#420) ;
#462=VERTEX_POINT('',#461) ;
#464=VERTEX_POINT('',#463) ;
#471=VERTEX_POINT('',#470) ;
#478=VERTEX_POINT('',#477) ;
#519=VERTEX_POINT('',#518) ;
#521=VERTEX_POINT('',#520) ;
#562=VERTEX_POINT('',#561) ;
#564=VERTEX_POINT('',#563) ;
#605=VERTEX_POINT('',#604) ;
#607=VERTEX_POINT('',#606) ;
#614=VERTEX_POINT('',#613) ;
#621=VERTEX_POINT('',#620) ;
#662=VERTEX_POINT('',#661) ;
#664=VERTEX_POINT('',#663) ;
#671=VERTEX_POINT('',#670) ;
#678=VERTEX_POINT('',#677) ;
#719=VERTEX_POINT('',#718) ;
#721=VERTEX_POINT('',#720) ;
#757=VERTEX_POINT('',#756) ;
#759=VERTEX_POINT('',#758) ;
#775=VERTEX_POINT('',#774) ;
#777=VERTEX_POINT('',#776) ;
#799=VERTEX_POINT('',#798) ;
#801=VERTEX_POINT('',#800) ;
#842=VERTEX_POINT('',#841) ;
#844=VERTEX_POINT('',#843) ;
#880=VERTEX_POINT('',#879) ;
#882=VERTEX_POINT('',#881) ;
#898=VERTEX_POINT('',#897) ;
#900=VERTEX_POINT('',#899) ;
#922=VERTEX_POINT('',#921) ;
#924=VERTEX_POINT('',#923) ;
#965=VERTEX_POINT('',#964) ;
#967=VERTEX_POINT('',#966) ;
#1008=VERTEX_POINT('',#1007) ;
#1010=VERTEX_POINT('',#1009) ;
#1076=VERTEX_POINT('',#1075) ;
#1083=VERTEX_POINT('',#1082) ;
#1124=VERTEX_POINT('',#1123) ;
#1126=VERTEX_POINT('',#1125) ;
#1192=VERTEX_POINT('',#1191) ;
#1199=VERTEX_POINT('',#1198) ;
#1259=ADVANCED_BREP_SHAPE_REPRESENTATION('NONE',(#21),#16) ;
#72=ADVANCED_FACE('Hauptk\X2\00F6\X0\rper',(#53,#71),#35,.F.) ;
#103=ADVANCED_FACE('Hauptk\X2\00F6\X0\rper',(#102),#77,.F.) ;
#115=ADVANCED_FACE('Hauptk\X2\00F6\X0\rper',(#114),#77,.F.) ;
#155=ADVANCED_FACE('Hauptk\X2\00F6\X0\rper',(#154),#120,.F.) ;
#172=ADVANCED_FACE('Hauptk\X2\00F6\X0\rper',(#171),#120,.F.) ;
#212=ADVANCED_FACE('Hauptk\X2\00F6\X0\rper',(#211),#177,.F.) ;
#229=ADVANCED_FACE('Hauptk\X2\00F6\X0\rper',(#228),#177,.F.) ;
#257=ADVANCED_FACE('Hauptk\X2\00F6\X0\rper',(#238,#256),#234,.F.) ;
#280=ADVANCED_FACE('Hauptk\X2\00F6\X0\rper',(#261,#279),#234,.F.) ;
#320=ADVANCED_FACE('Hauptk\X2\00F6\X0\rper',(#319),#285,.F.) ;
#337=ADVANCED_FACE('Hauptk\X2\00F6\X0\rper',(#336),#285,.F.) ;
#377=ADVANCED_FACE('Hauptk\X2\00F6\X0\rper',(#376),#342,.F.) ;
#394=ADVANCED_FACE('Hauptk\X2\00F6\X0\rper',(#393),#342,.F.) ;
#434=ADVANCED_FACE('Hauptk\X2\00F6\X0\rper',(#433),#399,.F.) ;
#451=ADVANCED_FACE('Hauptk\X2\00F6\X0\rper',(#450),#399,.F.) ;
#491=ADVANCED_FACE('Hauptk\X2\00F6\X0\rper',(#490),#456,.F.) ;
#508=ADVANCED_FACE('Hauptk\X2\00F6\X0\rper',(#507),#456,.F.) ;
#539=ADVANCED_FACE('Hauptk\X2\00F6\X0\rper',(#538),#513,.F.) ;
#551=ADVANCED_FACE('Hauptk\X2\00F6\X0\rper',(#550),#513,.F.) ;
#582=ADVANCED_FACE('Hauptk\X2\00F6\X0\rper',(#581),#556,.F.) ;
#594=ADVANCED_FACE('Hauptk\X2\00F6\X0\rper',(#593),#556,.F.) ;
#634=ADVANCED_FACE('Hauptk\X2\00F6\X0\rper',(#633),#599,.F.) ;
#651=ADVANCED_FACE('Hauptk\X2\00F6\X0\rper',(#650),#599,.F.) ;
#691=ADVANCED_FACE('Hauptk\X2\00F6\X0\rper',(#690),#656,.F.) ;
#708=ADVANCED_FACE('Hauptk\X2\00F6\X0\rper',(#707),#656,.F.) ;
#739=ADVANCED_FACE('Hauptk\X2\00F6\X0\rper',(#738),#713,.F.) ;
#751=ADVANCED_FACE('Hauptk\X2\00F6\X0\rper',(#750),#713,.F.) ;
#788=ADVANCED_FACE('Hauptk\X2\00F6\X0\rper',(#769,#787),#35,.F.) ;
#819=ADVANCED_FACE('Hauptk\X2\00F6\X0\rper',(#818),#793,.F.) ;
#831=ADVANCED_FACE('Hauptk\X2\00F6\X0\rper',(#830),#793,.F.) ;
#862=ADVANCED_FACE('Hauptk\X2\00F6\X0\rper',(#861),#836,.F.) ;
#874=ADVANCED_FACE('Hauptk\X2\00F6\X0\rper',(#873),#836,.F.) ;
#911=ADVANCED_FACE('Hauptk\X2\00F6\X0\rper',(#892,#910),#35,.F.) ;
#942=ADVANCED_FACE('Hauptk\X2\00F6\X0\rper',(#941),#916,.F.) ;
#954=ADVANCED_FACE('Hauptk\X2\00F6\X0\rper',(#953),#916,.F.) ;
#985=ADVANCED_FACE('Hauptk\X2\00F6\X0\rper',(#984),#959,.F.) ;
#997=ADVANCED_FACE('Hauptk\X2\00F6\X0\rper',(#996),#959,.F.) ;
#1065=ADVANCED_FACE('Hauptk\X2\00F6\X0\rper',(#1020,#1024,#1028,#1032,#1036,#1040,#1044,#1048,#1052,#1056,#1060,#1064),#1002,.F.) ;
#1096=ADVANCED_FACE('Hauptk\X2\00F6\X0\rper',(#1095),#1070,.T.) ;
#1113=ADVANCED_FACE('Hauptk\X2\00F6\X0\rper',(#1112),#1101,.T.) ;
#1181=ADVANCED_FACE('Hauptk\X2\00F6\X0\rper',(#1136,#1140,#1144,#1148,#1152,#1156,#1160,#1164,#1168,#1172,#1176,#1180),#1118,.T.) ;
#1212=ADVANCED_FACE('Hauptk\X2\00F6\X0\rper',(#1211),#1186,.T.) ;
#1224=ADVANCED_FACE('Hauptk\X2\00F6\X0\rper',(#1223),#1186,.T.) ;
#1246=ADVANCED_FACE('Hauptk\X2\00F6\X0\rper',(#1245),#1229,.T.) ;
#1258=ADVANCED_FACE('Hauptk\X2\00F6\X0\rper',(#1257),#1251,.T.) ;
#4=APPLICATION_PROTOCOL_DEFINITION('international standard','ap242_managed_model_based_3d_engineering',2014,#1) ;
#22=COLOUR_RGB('Colour',0.,0.501960784314,1.) ;
#53=FACE_OUTER_BOUND('',#50,.T.) ;
#102=FACE_OUTER_BOUND('',#97,.T.) ;
#114=FACE_OUTER_BOUND('',#109,.T.) ;
#154=FACE_OUTER_BOUND('',#149,.T.) ;
#171=FACE_OUTER_BOUND('',#166,.T.) ;
#211=FACE_OUTER_BOUND('',#206,.T.) ;
#228=FACE_OUTER_BOUND('',#223,.T.) ;
#238=FACE_OUTER_BOUND('',#235,.T.) ;
#261=FACE_OUTER_BOUND('',#258,.T.) ;
#319=FACE_OUTER_BOUND('',#314,.T.) ;
#336=FACE_OUTER_BOUND('',#331,.T.) ;
#376=FACE_OUTER_BOUND('',#371,.T.) ;
#393=FACE_OUTER_BOUND('',#388,.T.) ;
#433=FACE_OUTER_BOUND('',#428,.T.) ;
#450=FACE_OUTER_BOUND('',#445,.T.) ;
#490=FACE_OUTER_BOUND('',#485,.T.) ;
#507=FACE_OUTER_BOUND('',#502,.T.) ;
#538=FACE_OUTER_BOUND('',#533,.T.) ;
#550=FACE_OUTER_BOUND('',#545,.T.) ;
#581=FACE_OUTER_BOUND('',#576,.T.) ;
#593=FACE_OUTER_BOUND('',#588,.T.) ;
#633=FACE_OUTER_BOUND('',#628,.T.) ;
#650=FACE_OUTER_BOUND('',#645,.T.) ;
#690=FACE_OUTER_BOUND('',#685,.T.) ;
#707=FACE_OUTER_BOUND('',#702,.T.) ;
#738=FACE_OUTER_BOUND('',#733,.T.) ;
#750=FACE_OUTER_BOUND('',#745,.T.) ;
#769=FACE_OUTER_BOUND('',#766,.T.) ;
#818=FACE_OUTER_BOUND('',#813,.T.) ;
#830=FACE_OUTER_BOUND('',#825,.T.) ;
#861=FACE_OUTER_BOUND('',#856,.T.) ;
#873=FACE_OUTER_BOUND('',#868,.T.) ;
#892=FACE_OUTER_BOUND('',#889,.T.) ;
#941=FACE_OUTER_BOUND('',#936,.T.) ;
#953=FACE_OUTER_BOUND('',#948,.T.) ;
#984=FACE_OUTER_BOUND('',#979,.T.) ;
#996=FACE_OUTER_BOUND('',#991,.T.) ;
#1020=FACE_OUTER_BOUND('',#1017,.T.) ;
#1095=FACE_OUTER_BOUND('',#1090,.T.) ;
#1112=FACE_OUTER_BOUND('',#1107,.T.) ;
#1136=FACE_OUTER_BOUND('',#1133,.T.) ;
#1211=FACE_OUTER_BOUND('',#1206,.T.) ;
#1223=FACE_OUTER_BOUND('',#1218,.T.) ;
#1245=FACE_OUTER_BOUND('',#1240,.T.) ;
#1257=FACE_OUTER_BOUND('',#1252,.T.) ;
#9=PRODUCT_CATEGORY_RELATIONSHIP(' ',' ',#7,#8) ;
#6=PRODUCT_DEFINITION_FORMATION_WITH_SPECIFIED_SOURCE('',' ',#5,.NOT_KNOWN.) ;
#20=SHAPE_DEFINITION_REPRESENTATION(#11,#19) ;
#12=(LENGTH_UNIT()NAMED_UNIT(*)SI_UNIT(.MILLI.,.METRE.)) ;
#13=(NAMED_UNIT(*)PLANE_ANGLE_UNIT()SI_UNIT($,.RADIAN.)) ;
#14=(NAMED_UNIT(*)SI_UNIT($,.STERADIAN.)SOLID_ANGLE_UNIT()) ;
#16=(GEOMETRIC_REPRESENTATION_CONTEXT(3)GLOBAL_UNCERTAINTY_ASSIGNED_CONTEXT((#15))GLOBAL_UNIT_ASSIGNED_CONTEXT((#12,#13,#14))REPRESENTATION_CONTEXT(' ',' ')) ;
ENDSEC;
END-ISO-10303-21;
