ISO-10303-21;
HEADER;
FILE_DESCRIPTION(('CATIA V5 STEP Exchange','CAx-IF Rec.Pracs.--- Model Styling and Organization---1.5--- 2016-08-15','CAx-IF Rec.Pracs.---Supplemental Geometry---1.0---2011-11-01','CAx-IF Rec.Pracs.--- Composite Materials ---3.4---2017-06-13','CAx-IF Rec.Pracs.---Tessellated 3D Geometry---1.0---2015-12-17'),'2;1');

FILE_NAME('M:\\Projekte\\P2020\\P2003_32WV-EU\\17_Anlagenplanung\\01_Automatisierung\\01_Konstruktion\\03_CS04-Flansch kpl\\2D\\01_CATIA\\01_Verstemmwerkzeug\\04_DISTANZSTUECK.stp','2021-08-05T12:01:48+00:00',('none'),('none'),'CATIA Version 5-6 Release 2020 SP3 HF9','CATIA V5 STEP AP242 v2','none');

FILE_SCHEMA(('AP242_MANAGED_MODEL_BASED_3D_ENGINEERING_MIM_LF  {1 0 10303 442 1 1 4}'));

ENDSEC;
DATA;
#5=PRODUCT('DISTANZSTUECK','DISTANZSTUECK','NOT SPECIFIED',(#2)) ;
#2=PRODUCT_CONTEXT(' ',#1,'mechanical') ;
#1=APPLICATION_CONTEXT('managed model based 3d engineering') ;
#10=PRODUCT_DEFINITION('part definition',' ',#6,#3) ;
#3=PRODUCT_DEFINITION_CONTEXT('part definition',#1,' ') ;
#11=PRODUCT_DEFINITION_SHAPE(' ',' ',#10) ;
#1008=MECHANICAL_DESIGN_GEOMETRIC_PRESENTATION_REPRESENTATION(' ',(#208,#240,#295,#327,#340,#423,#530,#543,#609,#617,#669,#677,#29),#16) ;
#7=PRODUCT_CATEGORY('part','specification') ;
#19=SHAPE_REPRESENTATION(' ',(#18),#16) ;
#17=CARTESIAN_POINT(' ',(0.,0.,0.)) ;
#31=CARTESIAN_POINT('Axis2P3D Location',(-16.5,0.,24.4641152136)) ;
#36=CARTESIAN_POINT('Line Origine',(-17.3105,9.92576230709E-17,24.9320576068)) ;
#40=CARTESIAN_POINT('Vertex',(-16.5,0.,24.4641152136)) ;
#42=CARTESIAN_POINT('Vertex',(-18.121,1.98515246142E-16,25.4)) ;
#45=CARTESIAN_POINT('Axis2P3D Location',(-16.5,0.,25.4)) ;
#49=CARTESIAN_POINT('Vertex',(-14.879,-3.97030492284E-16,25.4)) ;
#52=CARTESIAN_POINT('Line Origine',(-15.6895,-1.98515246142E-16,24.9320576068)) ;
#63=CARTESIAN_POINT('Axis2P3D Location',(0.,0.,37.4)) ;
#68=CARTESIAN_POINT('Axis2P3D Location',(-3.5527136788E-15,3.5527136788E-15,37.4)) ;
#72=CARTESIAN_POINT('Vertex',(2.63299061817E-15,21.5,37.4000000004)) ;
#74=CARTESIAN_POINT('Vertex',(0.,-21.5,37.4000000004)) ;
#77=CARTESIAN_POINT('Axis2P3D Location',(3.5527136788E-15,-3.5527136788E-15,37.4)) ;
#86=CARTESIAN_POINT('Axis2P3D Location',(-16.5,0.,37.4)) ;
#90=CARTESIAN_POINT('Vertex',(-18.121,-1.98515246142E-16,37.4)) ;
#92=CARTESIAN_POINT('Vertex',(-14.879,0.,37.4)) ;
#95=CARTESIAN_POINT('Axis2P3D Location',(-16.5,0.,37.4)) ;
#105=CARTESIAN_POINT('Control Point',(4.4408920985E-16,13.1500000004,37.4)) ;
#106=CARTESIAN_POINT('Control Point',(1.24354789907,13.1500000004,37.4)) ;
#107=CARTESIAN_POINT('Control Point',(2.48709540292,13.0030027212,37.4)) ;
#108=CARTESIAN_POINT('Control Point',(3.7075265309,12.708972195,37.4)) ;
#109=CARTESIAN_POINT('Control Point',(6.05562836276,11.8380531244,37.4)) ;
#110=CARTESIAN_POINT('Control Point',(8.13595078512,10.4436597095,37.4)) ;
#111=CARTESIAN_POINT('Control Point',(9.08857106279,9.62608971852,37.4)) ;
#112=CARTESIAN_POINT('Control Point',(10.78241158,7.78137116217,37.4)) ;
#113=CARTESIAN_POINT('Control Point',(11.9994562686,5.59256404125,37.4)) ;
#114=CARTESIAN_POINT('Control Point',(12.4752230699,4.43086183388,37.4)) ;
#115=CARTESIAN_POINT('Control Point',(13.1431065628,2.01714811773,37.4)) ;
#116=CARTESIAN_POINT('Control Point',(13.2298056996,-0.485761720774,37.4)) ;
#117=CARTESIAN_POINT('Control Point',(13.1243169457,-1.73667266396,37.4)) ;
#118=CARTESIAN_POINT('Control Point',(12.6196833164,-4.18971713147,37.4)) ;
#119=CARTESIAN_POINT('Control Point',(11.5570116758,-6.45749211589,37.4)) ;
#120=CARTESIAN_POINT('Control Point',(10.8934157762,-7.52311238513,37.4)) ;
#121=CARTESIAN_POINT('Control Point',(9.32700163409,-9.47719247302,37.4)) ;
#122=CARTESIAN_POINT('Control Point',(7.34815147101,-11.0121929365,37.4)) ;
#123=CARTESIAN_POINT('Control Point',(6.27206765672,-11.6586832245,37.4)) ;
#124=CARTESIAN_POINT('Control Point',(4.39406953807,-12.5023893936,37.4)) ;
#125=CARTESIAN_POINT('Control Point',(2.39690689327,-12.9670171109,37.4)) ;
#126=CARTESIAN_POINT('Control Point',(1.60206197067,-13.0890066061,37.4)) ;
#127=CARTESIAN_POINT('Control Point',(0.801030903344,-13.1500000004,37.4)) ;
#128=CARTESIAN_POINT('Control Point',(-1.99840144433E-15,-13.1500000004,37.4)) ;
#129=CARTESIAN_POINT('Vertex',(1.61041054088E-15,13.15,37.4)) ;
#131=CARTESIAN_POINT('Vertex',(-1.49003673008E-14,-13.15,37.4)) ;
#135=CARTESIAN_POINT('Control Point',(-4.4408920985E-16,-13.1500000004,37.4)) ;
#136=CARTESIAN_POINT('Control Point',(-1.2435478991,-13.1500000004,37.4)) ;
#137=CARTESIAN_POINT('Control Point',(-2.48709540299,-13.0030027211,37.4)) ;
#138=CARTESIAN_POINT('Control Point',(-3.70752653084,-12.708972195,37.4)) ;
#139=CARTESIAN_POINT('Control Point',(-6.05562836272,-11.8380531245,37.4)) ;
#140=CARTESIAN_POINT('Control Point',(-8.13595078511,-10.4436597095,37.4)) ;
#141=CARTESIAN_POINT('Control Point',(-9.08857106279,-9.62608971851,37.4)) ;
#142=CARTESIAN_POINT('Control Point',(-10.78241158,-7.78137116216,37.4)) ;
#143=CARTESIAN_POINT('Control Point',(-11.9994562686,-5.59256404124,37.4)) ;
#144=CARTESIAN_POINT('Control Point',(-12.4752230699,-4.43086183389,37.4)) ;
#145=CARTESIAN_POINT('Control Point',(-13.1431065628,-2.01714811773,37.4)) ;
#146=CARTESIAN_POINT('Control Point',(-13.2298056996,0.485761720781,37.4)) ;
#147=CARTESIAN_POINT('Control Point',(-13.1243169457,1.73667266395,37.4)) ;
#148=CARTESIAN_POINT('Control Point',(-12.6196833164,4.18971713148,37.4)) ;
#149=CARTESIAN_POINT('Control Point',(-11.5570116758,6.4574921159,37.4)) ;
#150=CARTESIAN_POINT('Control Point',(-10.8934157762,7.52311238512,37.4)) ;
#151=CARTESIAN_POINT('Control Point',(-9.3270016341,9.47719247302,37.4)) ;
#152=CARTESIAN_POINT('Control Point',(-7.34815147099,11.0121929365,37.4)) ;
#153=CARTESIAN_POINT('Control Point',(-6.27206765673,11.6586832245,37.4)) ;
#154=CARTESIAN_POINT('Control Point',(-4.39406953809,12.5023893936,37.4)) ;
#155=CARTESIAN_POINT('Control Point',(-2.39690689329,12.9670171109,37.4)) ;
#156=CARTESIAN_POINT('Control Point',(-1.60206197066,13.0890066061,37.4)) ;
#157=CARTESIAN_POINT('Control Point',(-0.801030903336,13.1500000004,37.4)) ;
#158=CARTESIAN_POINT('Control Point',(1.11022302463E-15,13.1500000004,37.4)) ;
#164=CARTESIAN_POINT('Axis2P3D Location',(8.25,14.2894191624,37.4)) ;
#168=CARTESIAN_POINT('Vertex',(7.4395,12.8855919829,37.4)) ;
#170=CARTESIAN_POINT('Vertex',(9.0605,15.693246342,37.4)) ;
#173=CARTESIAN_POINT('Axis2P3D Location',(8.25,14.2894191624,37.4)) ;
#182=CARTESIAN_POINT('Axis2P3D Location',(8.25,-14.2894191624,37.4)) ;
#186=CARTESIAN_POINT('Vertex',(7.4395,-12.8855919829,37.4)) ;
#188=CARTESIAN_POINT('Vertex',(9.0605,-15.693246342,37.4)) ;
#191=CARTESIAN_POINT('Axis2P3D Location',(8.25,-14.2894191624,37.4)) ;
#209=CARTESIAN_POINT('Axis2P3D Location',(0.,0.,0.)) ;
#214=CARTESIAN_POINT('Line Origine',(-5.26598123633E-15,-21.5,0.)) ;
#218=CARTESIAN_POINT('Vertex',(-2.08091035811E-14,-21.5,0.)) ;
#221=CARTESIAN_POINT('Line Origine',(2.63299061817E-15,21.5,0.)) ;
#225=CARTESIAN_POINT('Vertex',(8.62819495114E-15,21.5,0.)) ;
#228=CARTESIAN_POINT('Axis2P3D Location',(0.,0.,0.)) ;
#241=CARTESIAN_POINT('Axis2P3D Location',(0.,0.,0.)) ;
#253=CARTESIAN_POINT('Control Point',(21.4067746286,-2.,18.6999999993)) ;
#254=CARTESIAN_POINT('Control Point',(21.4067746286,-2.,18.2814947383)) ;
#255=CARTESIAN_POINT('Control Point',(21.4165470302,-1.89540220122,17.879075637)) ;
#256=CARTESIAN_POINT('Control Point',(21.4371856815,-1.67733586474,17.4935600726)) ;
#257=CARTESIAN_POINT('Control Point',(21.4697614486,-1.22478438484,17.0391893397)) ;
#258=CARTESIAN_POINT('Control Point',(21.4915084598,-0.650112470842,16.7913355815)) ;
#259=CARTESIAN_POINT('Control Point',(21.4968425027,-0.446885894433,16.7338826831)) ;
#260=CARTESIAN_POINT('Control Point',(21.5052760773,0.172813542966,16.643471138)) ;
#261=CARTESIAN_POINT('Control Point',(21.4912933991,0.796467980513,16.7933824747)) ;
#262=CARTESIAN_POINT('Control Point',(21.4713878258,1.17862077227,17.0029807342)) ;
#263=CARTESIAN_POINT('Control Point',(21.4379864784,1.65175805024,17.4572417468)) ;
#264=CARTESIAN_POINT('Control Point',(21.4153286888,1.90849332175,18.0456107706)) ;
#265=CARTESIAN_POINT('Control Point',(21.4095462214,1.9703345685,18.2588016706)) ;
#266=CARTESIAN_POINT('Control Point',(21.4067746286,2.,18.477119933)) ;
#267=CARTESIAN_POINT('Control Point',(21.4067746286,2.,18.6999999993)) ;
#268=CARTESIAN_POINT('Vertex',(21.4067746286,-2.,18.6999999993)) ;
#270=CARTESIAN_POINT('Vertex',(21.4067746286,2.,18.6999999993)) ;
#274=CARTESIAN_POINT('Control Point',(21.4067746286,2.,18.6999999993)) ;
#275=CARTESIAN_POINT('Control Point',(21.4067746286,2.,19.1185055861)) ;
#276=CARTESIAN_POINT('Control Point',(21.4165470395,1.89540210137,19.5209248769)) ;
#277=CARTESIAN_POINT('Control Point',(21.4371857107,1.67733509405,19.9064400113)) ;
#278=CARTESIAN_POINT('Control Point',(21.4697614042,1.22478548684,20.3608103572)) ;
#279=CARTESIAN_POINT('Control Point',(21.4915084625,0.650112284845,20.6086643939)) ;
#280=CARTESIAN_POINT('Control Point',(21.4968425354,0.446884205614,20.6661176373)) ;
#281=CARTESIAN_POINT('Control Point',(21.5052760678,-0.172816029234,20.756528994)) ;
#282=CARTESIAN_POINT('Control Point',(21.4912933342,-0.796469293578,20.6066165073)) ;
#283=CARTESIAN_POINT('Control Point',(21.4713877179,-1.1786225546,20.3970180915)) ;
#284=CARTESIAN_POINT('Control Point',(21.4379864005,-1.65175897457,19.942756993)) ;
#285=CARTESIAN_POINT('Control Point',(21.4153286531,-1.90849371,19.3543878243)) ;
#286=CARTESIAN_POINT('Control Point',(21.4095462023,-1.97033477353,19.1411971644)) ;
#287=CARTESIAN_POINT('Control Point',(21.4067746286,-2.,18.9228794467)) ;
#288=CARTESIAN_POINT('Control Point',(21.4067746286,-2.,18.6999999993)) ;
#296=CARTESIAN_POINT('Axis2P3D Location',(0.,0.,37.1499999982)) ;
#301=CARTESIAN_POINT('Line Origine',(4.32978818015E-10,3535540.35593,3535564.60593)) ;
#305=CARTESIAN_POINT('Vertex',(1.54917820092E-15,12.65,36.9)) ;
#308=CARTESIAN_POINT('Axis2P3D Location',(0.,0.,36.9)) ;
#312=CARTESIAN_POINT('Vertex',(0.,-12.65,36.9)) ;
#315=CARTESIAN_POINT('Line Origine',(0.,-3535540.35593,3535564.60593)) ;
#328=CARTESIAN_POINT('Axis2P3D Location',(0.,0.,36.9)) ;
#341=CARTESIAN_POINT('Axis2P3D Location',(0.,0.,0.)) ;
#350=CARTESIAN_POINT('Axis2P3D Location',(-16.5,0.,0.)) ;
#354=CARTESIAN_POINT('Vertex',(-18.121,1.98515246142E-16,-1.7763568394E-15)) ;
#356=CARTESIAN_POINT('Vertex',(-14.879,0.,0.)) ;
#359=CARTESIAN_POINT('Axis2P3D Location',(-16.5,0.,0.)) ;
#368=CARTESIAN_POINT('Axis2P3D Location',(2.6645352591E-15,-2.6645352591E-15,0.)) ;
#372=CARTESIAN_POINT('Vertex',(4.27494580002E-15,13.1500000004,0.)) ;
#374=CARTESIAN_POINT('Vertex',(-3.94430452611E-31,-13.1500000004,0.)) ;
#377=CARTESIAN_POINT('Axis2P3D Location',(-2.6645352591E-15,2.6645352591E-15,0.)) ;
#386=CARTESIAN_POINT('Axis2P3D Location',(8.25,14.2894191624,0.)) ;
#390=CARTESIAN_POINT('Vertex',(7.4395,12.8855919829,0.)) ;
#392=CARTESIAN_POINT('Vertex',(9.0605,15.693246342,0.)) ;
#395=CARTESIAN_POINT('Axis2P3D Location',(8.25,14.2894191624,0.)) ;
#404=CARTESIAN_POINT('Axis2P3D Location',(8.25,-14.2894191624,0.)) ;
#408=CARTESIAN_POINT('Vertex',(7.4395,-12.8855919829,0.)) ;
#410=CARTESIAN_POINT('Vertex',(9.0605,-15.693246342,0.)) ;
#413=CARTESIAN_POINT('Axis2P3D Location',(8.25,-14.2894191624,0.)) ;
#424=CARTESIAN_POINT('Axis2P3D Location',(0.,0.,0.)) ;
#429=CARTESIAN_POINT('Line Origine',(-4.06855030368E-15,12.65,0.)) ;
#433=CARTESIAN_POINT('Vertex',(-4.06855030368E-15,12.65,0.5)) ;
#436=CARTESIAN_POINT('Axis2P3D Location',(0.,0.,0.5)) ;
#440=CARTESIAN_POINT('Vertex',(8.13710060736E-15,-12.65,0.5)) ;
#443=CARTESIAN_POINT('Line Origine',(0.,-12.65,0.)) ;
#455=CARTESIAN_POINT('Control Point',(12.4908966852,-2.,18.6999999993)) ;
#456=CARTESIAN_POINT('Control Point',(12.4908966852,-2.,18.6331767455)) ;
#457=CARTESIAN_POINT('Control Point',(12.4913148633,-1.99738829049,18.566551598)) ;
#458=CARTESIAN_POINT('Control Point',(12.492180375,-1.99198314351,18.4999068234)) ;
#459=CARTESIAN_POINT('Control Point',(12.4961546202,-1.96705325461,18.3004528507)) ;
#460=CARTESIAN_POINT('Control Point',(12.5042137609,-1.9155052207,18.102424966)) ;
#461=CARTESIAN_POINT('Control Point',(12.5115667636,-1.86746293028,17.9659604335)) ;
#462=CARTESIAN_POINT('Control Point',(12.5283307479,-1.75357116263,17.7129413292)) ;
#463=CARTESIAN_POINT('Control Point',(12.5489276817,-1.59896487891,17.4864293967)) ;
#464=CARTESIAN_POINT('Control Point',(12.5598258096,-1.51205527003,17.3803800233)) ;
#465=CARTESIAN_POINT('Control Point',(12.5819576691,-1.32051487804,17.182903341)) ;
#466=CARTESIAN_POINT('Control Point',(12.6029047318,-1.09941154497,17.0207296738)) ;
#467=CARTESIAN_POINT('Control Point',(12.6126813582,-0.982352407931,16.9492925336)) ;
#468=CARTESIAN_POINT('Control Point',(12.6301583067,-0.736692521191,16.8278780039)) ;
#469=CARTESIAN_POINT('Control Point',(12.6423147774,-0.470554275283,16.7494082343)) ;
#470=CARTESIAN_POINT('Control Point',(12.6466875283,-0.334299607416,16.7210645693)) ;
#471=CARTESIAN_POINT('Control Point',(12.651706109,-0.0613409767356,16.6885889987)) ;
#472=CARTESIAN_POINT('Control Point',(12.6493154739,0.213711321779,16.7042055303)) ;
#473=CARTESIAN_POINT('Control Point',(12.6462236825,0.351652848597,16.7244242765)) ;
#474=CARTESIAN_POINT('Control Point',(12.6363830777,0.622558160912,16.7871175122)) ;
#475=CARTESIAN_POINT('Control Point',(12.6204998411,0.877090852524,16.8941104032)) ;
#476=CARTESIAN_POINT('Control Point',(12.611310484,0.999108111409,16.9589561771)) ;
#477=CARTESIAN_POINT('Control Point',(12.5912804068,1.22955025066,17.10819421)) ;
#478=CARTESIAN_POINT('Control Point',(12.5692368176,1.43232736273,17.2945087362)) ;
#479=CARTESIAN_POINT('Control Point',(12.5580514621,1.52620014118,17.3962747395)) ;
#480=CARTESIAN_POINT('Control Point',(12.5366192926,1.69402598735,17.6133498838)) ;
#481=CARTESIAN_POINT('Control Point',(12.5182626379,1.82239137886,17.8593567949)) ;
#482=CARTESIAN_POINT('Control Point',(12.5100868166,1.87705875732,17.992260741)) ;
#483=CARTESIAN_POINT('Control Point',(12.4991326584,1.94827651508,18.2123961341)) ;
#484=CARTESIAN_POINT('Control Point',(12.4931743467,1.98577755352,18.4336408589)) ;
#485=CARTESIAN_POINT('Control Point',(12.4916274826,1.99543584242,18.5225087219)) ;
#486=CARTESIAN_POINT('Control Point',(12.4908966852,2.,18.6111015966)) ;
#487=CARTESIAN_POINT('Control Point',(12.4908966852,2.,18.6999999993)) ;
#488=CARTESIAN_POINT('Vertex',(12.4908966852,-2.,18.6999999993)) ;
#490=CARTESIAN_POINT('Vertex',(12.4908966852,2.,18.6999999993)) ;
#494=CARTESIAN_POINT('Control Point',(12.4908966852,2.,18.6999999993)) ;
#495=CARTESIAN_POINT('Control Point',(12.4908966852,2.,18.7668331794)) ;
#496=CARTESIAN_POINT('Control Point',(12.491315133,1.99738660586,18.8334683479)) ;
#497=CARTESIAN_POINT('Control Point',(12.492181085,1.99197870886,18.900122958)) ;
#498=CARTESIAN_POINT('Control Point',(12.4961565595,1.96704101873,19.0995902663)) ;
#499=CARTESIAN_POINT('Control Point',(12.5042164276,1.91548787553,19.2976302202)) ;
#500=CARTESIAN_POINT('Control Point',(12.5115677636,1.86745626371,19.4340843925)) ;
#501=CARTESIAN_POINT('Control Point',(12.5283332511,1.75355416481,19.6870883026)) ;
#502=CARTESIAN_POINT('Control Point',(12.5489336216,1.59891968512,19.9136244283)) ;
#503=CARTESIAN_POINT('Control Point',(12.5598350525,1.51198072636,20.0197070734)) ;
#504=CARTESIAN_POINT('Control Point',(12.5819606503,1.32048494174,20.2171228886)) ;
#505=CARTESIAN_POINT('Control Point',(12.6029051047,1.09939657681,20.3792731562)) ;
#506=CARTESIAN_POINT('Control Point',(12.6126802526,0.98236197446,20.4507060238)) ;
#507=CARTESIAN_POINT('Control Point',(12.6301582799,0.736701194549,20.5721145148)) ;
#508=CARTESIAN_POINT('Control Point',(12.6423184111,0.470484574125,20.6506097132)) ;
#509=CARTESIAN_POINT('Control Point',(12.6466914269,0.334190323743,20.6789696551)) ;
#510=CARTESIAN_POINT('Control Point',(12.6542075413,-0.0749207304577,20.7275815317)) ;
#511=CARTESIAN_POINT('Control Point',(12.6450829248,-0.488577601144,20.6682171601)) ;
#512=CARTESIAN_POINT('Control Point',(12.6309103197,-0.760849491765,20.5814910697)) ;
#513=CARTESIAN_POINT('Control Point',(12.6023345574,-1.12788887388,20.3852622134)) ;
#514=CARTESIAN_POINT('Control Point',(12.5692223561,-1.43245277119,20.1053690886)) ;
#515=CARTESIAN_POINT('Control Point',(12.5580371603,-1.52631725412,20.0035873435)) ;
#516=CARTESIAN_POINT('Control Point',(12.5366037808,-1.69414043218,19.7864705137)) ;
#517=CARTESIAN_POINT('Control Point',(12.5182481901,-1.82249032956,19.5404336537)) ;
#518=CARTESIAN_POINT('Control Point',(12.5100728692,-1.87715098954,19.4074906963)) ;
#519=CARTESIAN_POINT('Control Point',(12.4991241714,-1.94833033571,19.1873759979)) ;
#520=CARTESIAN_POINT('Control Point',(12.4931711891,-1.98579727625,18.9661979102)) ;
#521=CARTESIAN_POINT('Control Point',(12.4916263321,-1.99544302777,18.8773778943)) ;
#522=CARTESIAN_POINT('Control Point',(12.4908966852,-2.,18.7888390227)) ;
#523=CARTESIAN_POINT('Control Point',(12.4908966852,-2.,18.6999999993)) ;
#531=CARTESIAN_POINT('Axis2P3D Location',(0.,0.,0.5)) ;
#544=CARTESIAN_POINT('Axis2P3D Location',(-16.5,0.,0.)) ;
#549=CARTESIAN_POINT('Line Origine',(-14.879,0.,5.84499999981)) ;
#553=CARTESIAN_POINT('Vertex',(-14.879,3.97030492284E-16,12.)) ;
#556=CARTESIAN_POINT('Axis2P3D Location',(-16.5,0.,12.)) ;
#560=CARTESIAN_POINT('Vertex',(-18.121,-1.98515246142E-16,12.)) ;
#563=CARTESIAN_POINT('Line Origine',(-18.121,1.98515246142E-16,5.84499999981)) ;
#575=CARTESIAN_POINT('Axis2P3D Location',(-16.5,0.,12.)) ;
#587=CARTESIAN_POINT('Axis2P3D Location',(0.,0.,0.250000001828)) ;
#592=CARTESIAN_POINT('Line Origine',(8.6595763603E-10,-3535540.35593,-3535527.20593)) ;
#597=CARTESIAN_POINT('Line Origine',(-4.32978818015E-10,3535540.35593,-3535527.20593)) ;
#618=CARTESIAN_POINT('Axis2P3D Location',(-16.5,0.,12.9358847864)) ;
#623=CARTESIAN_POINT('Line Origine',(-17.3105,-9.92576230709E-17,12.4679423932)) ;
#627=CARTESIAN_POINT('Vertex',(-16.5,0.,12.9358847864)) ;
#630=CARTESIAN_POINT('Line Origine',(-15.6895,1.98515246142E-16,12.4679423932)) ;
#647=CARTESIAN_POINT('Axis2P3D Location',(21.5,0.,18.7)) ;
#652=CARTESIAN_POINT('Line Origine',(21.5,-2.,18.7)) ;
#657=CARTESIAN_POINT('Line Origine',(21.5,2.,18.7)) ;
#678=CARTESIAN_POINT('Axis2P3D Location',(-16.5,0.,37.4)) ;
#683=CARTESIAN_POINT('Line Origine',(-18.121,-1.98515246142E-16,31.5550000004)) ;
#688=CARTESIAN_POINT('Axis2P3D Location',(-16.5,0.,25.4)) ;
#693=CARTESIAN_POINT('Line Origine',(-14.879,3.97030492284E-16,31.5550000004)) ;
#718=CARTESIAN_POINT('Axis2P3D Location',(8.25,14.2894191624,24.4641152136)) ;
#723=CARTESIAN_POINT('Line Origine',(8.65525,14.9913327522,24.9320576068)) ;
#727=CARTESIAN_POINT('Vertex',(8.25,14.2894191624,24.4641152136)) ;
#729=CARTESIAN_POINT('Vertex',(9.0605,15.693246342,25.4)) ;
#732=CARTESIAN_POINT('Axis2P3D Location',(8.25,14.2894191624,25.4)) ;
#736=CARTESIAN_POINT('Vertex',(7.4395,12.8855919829,25.4)) ;
#739=CARTESIAN_POINT('Line Origine',(7.84475,13.5875055727,24.9320576068)) ;
#750=CARTESIAN_POINT('Axis2P3D Location',(8.25,14.2894191624,25.4)) ;
#761=CARTESIAN_POINT('Axis2P3D Location',(8.25,14.2894191624,37.4)) ;
#766=CARTESIAN_POINT('Line Origine',(7.4395,12.8855919829,31.5550000004)) ;
#771=CARTESIAN_POINT('Line Origine',(9.0605,15.693246342,31.5550000004)) ;
#790=CARTESIAN_POINT('Axis2P3D Location',(8.25,-14.2894191624,24.4641152136)) ;
#795=CARTESIAN_POINT('Line Origine',(8.65525,-14.9913327522,24.9320576068)) ;
#799=CARTESIAN_POINT('Vertex',(8.25,-14.2894191624,24.4641152136)) ;
#801=CARTESIAN_POINT('Vertex',(9.0605,-15.693246342,25.4)) ;
#804=CARTESIAN_POINT('Axis2P3D Location',(8.25,-14.2894191624,25.4)) ;
#808=CARTESIAN_POINT('Vertex',(7.4395,-12.8855919829,25.4)) ;
#811=CARTESIAN_POINT('Line Origine',(7.84475,-13.5875055727,24.9320576068)) ;
#822=CARTESIAN_POINT('Axis2P3D Location',(8.25,-14.2894191624,25.4)) ;
#833=CARTESIAN_POINT('Axis2P3D Location',(8.25,-14.2894191624,37.4)) ;
#838=CARTESIAN_POINT('Line Origine',(7.4395,-12.8855919829,31.5550000004)) ;
#843=CARTESIAN_POINT('Line Origine',(9.0605,-15.693246342,31.5550000004)) ;
#862=CARTESIAN_POINT('Axis2P3D Location',(8.25,14.2894191624,12.9358847864)) ;
#867=CARTESIAN_POINT('Line Origine',(8.65525,14.9913327522,12.4679423932)) ;
#871=CARTESIAN_POINT('Vertex',(8.25,14.2894191624,12.9358847864)) ;
#873=CARTESIAN_POINT('Vertex',(9.0605,15.693246342,12.)) ;
#876=CARTESIAN_POINT('Axis2P3D Location',(8.25,14.2894191624,12.)) ;
#880=CARTESIAN_POINT('Vertex',(7.4395,12.8855919829,12.)) ;
#883=CARTESIAN_POINT('Line Origine',(7.84475,13.5875055727,12.4679423932)) ;
#894=CARTESIAN_POINT('Axis2P3D Location',(8.25,14.2894191624,12.)) ;
#905=CARTESIAN_POINT('Axis2P3D Location',(8.25,14.2894191624,0.)) ;
#910=CARTESIAN_POINT('Line Origine',(7.4395,12.8855919829,5.84499999981)) ;
#915=CARTESIAN_POINT('Line Origine',(9.0605,15.693246342,5.84499999981)) ;
#934=CARTESIAN_POINT('Axis2P3D Location',(8.25,-14.2894191624,12.9358847864)) ;
#939=CARTESIAN_POINT('Line Origine',(8.65525,-14.9913327522,12.4679423932)) ;
#943=CARTESIAN_POINT('Vertex',(8.25,-14.2894191624,12.9358847864)) ;
#945=CARTESIAN_POINT('Vertex',(9.0605,-15.693246342,12.)) ;
#948=CARTESIAN_POINT('Axis2P3D Location',(8.25,-14.2894191624,12.)) ;
#952=CARTESIAN_POINT('Vertex',(7.4395,-12.8855919829,12.)) ;
#955=CARTESIAN_POINT('Line Origine',(7.84475,-13.5875055727,12.4679423932)) ;
#966=CARTESIAN_POINT('Axis2P3D Location',(8.25,-14.2894191624,12.)) ;
#977=CARTESIAN_POINT('Axis2P3D Location',(8.25,-14.2894191624,0.)) ;
#982=CARTESIAN_POINT('Line Origine',(7.4395,-12.8855919829,5.84499999981)) ;
#987=CARTESIAN_POINT('Line Origine',(9.0605,-15.693246342,5.84499999981)) ;
#8=PRODUCT_RELATED_PRODUCT_CATEGORY('part',$,(#5)) ;
#15=UNCERTAINTY_MEASURE_WITH_UNIT(LENGTH_MEASURE(0.005),#12,'distance_accuracy_value','CONFUSED CURVE UNCERTAINTY') ;
#29=STYLED_ITEM(' ',(#28),#21) ;
#28=PRESENTATION_STYLE_ASSIGNMENT((#27)) ;
#207=PRESENTATION_STYLE_ASSIGNMENT((#206)) ;
#27=SURFACE_STYLE_USAGE(.BOTH.,#26) ;
#206=SURFACE_STYLE_USAGE(.BOTH.,#205) ;
#26=SURFACE_SIDE_STYLE(' ',(#25)) ;
#205=SURFACE_SIDE_STYLE(' ',(#204)) ;
#25=SURFACE_STYLE_FILL_AREA(#24) ;
#204=SURFACE_STYLE_FILL_AREA(#203) ;
#24=FILL_AREA_STYLE(' ',(#23)) ;
#203=FILL_AREA_STYLE(' ',(#202)) ;
#23=FILL_AREA_STYLE_COLOUR(' ',#22) ;
#202=FILL_AREA_STYLE_COLOUR(' ',#201) ;
#38=VECTOR('Line Direction',#37,1.) ;
#54=VECTOR('Line Direction',#53,1.) ;
#216=VECTOR('Line Direction',#215,1.) ;
#223=VECTOR('Line Direction',#222,1.) ;
#303=VECTOR('Line Direction',#302,1.) ;
#317=VECTOR('Line Direction',#316,1.) ;
#431=VECTOR('Line Direction',#430,1.) ;
#445=VECTOR('Line Direction',#444,1.) ;
#551=VECTOR('Line Direction',#550,1.) ;
#565=VECTOR('Line Direction',#564,1.) ;
#594=VECTOR('Line Direction',#593,1.) ;
#599=VECTOR('Line Direction',#598,1.) ;
#625=VECTOR('Line Direction',#624,1.) ;
#632=VECTOR('Line Direction',#631,1.) ;
#654=VECTOR('Line Direction',#653,1.) ;
#659=VECTOR('Line Direction',#658,1.) ;
#685=VECTOR('Line Direction',#684,1.) ;
#695=VECTOR('Line Direction',#694,1.) ;
#725=VECTOR('Line Direction',#724,1.) ;
#741=VECTOR('Line Direction',#740,1.) ;
#768=VECTOR('Line Direction',#767,1.) ;
#773=VECTOR('Line Direction',#772,1.) ;
#797=VECTOR('Line Direction',#796,1.) ;
#813=VECTOR('Line Direction',#812,1.) ;
#840=VECTOR('Line Direction',#839,1.) ;
#845=VECTOR('Line Direction',#844,1.) ;
#869=VECTOR('Line Direction',#868,1.) ;
#885=VECTOR('Line Direction',#884,1.) ;
#912=VECTOR('Line Direction',#911,1.) ;
#917=VECTOR('Line Direction',#916,1.) ;
#941=VECTOR('Line Direction',#940,1.) ;
#957=VECTOR('Line Direction',#956,1.) ;
#984=VECTOR('Line Direction',#983,1.) ;
#989=VECTOR('Line Direction',#988,1.) ;
#32=DIRECTION('Axis2P3D Direction',(-0.,0.,1.)) ;
#33=DIRECTION('Axis2P3D XDirection',(1.,0.,0.)) ;
#37=DIRECTION('Vector Direction',(-0.866025403784,1.06057523872E-16,0.5)) ;
#46=DIRECTION('Axis2P3D Direction',(-0.,0.,1.)) ;
#53=DIRECTION('Vector Direction',(0.866025403784,-2.12115047745E-16,0.5)) ;
#64=DIRECTION('Axis2P3D Direction',(-0.,0.,1.)) ;
#65=DIRECTION('Axis2P3D XDirection',(0.,-1.,0.)) ;
#69=DIRECTION('Axis2P3D Direction',(-0.,0.,1.)) ;
#78=DIRECTION('Axis2P3D Direction',(-0.,0.,1.)) ;
#87=DIRECTION('Axis2P3D Direction',(-0.,0.,1.)) ;
#96=DIRECTION('Axis2P3D Direction',(-0.,0.,1.)) ;
#165=DIRECTION('Axis2P3D Direction',(-0.,0.,1.)) ;
#174=DIRECTION('Axis2P3D Direction',(-0.,0.,1.)) ;
#183=DIRECTION('Axis2P3D Direction',(-0.,0.,1.)) ;
#192=DIRECTION('Axis2P3D Direction',(-0.,0.,1.)) ;
#210=DIRECTION('Axis2P3D Direction',(0.,0.,1.)) ;
#211=DIRECTION('Axis2P3D XDirection',(0.,-1.,0.)) ;
#215=DIRECTION('Vector Direction',(0.,0.,1.)) ;
#222=DIRECTION('Vector Direction',(0.,0.,1.)) ;
#229=DIRECTION('Axis2P3D Direction',(0.,0.,1.)) ;
#242=DIRECTION('Axis2P3D Direction',(0.,0.,1.)) ;
#297=DIRECTION('Axis2P3D Direction',(0.,0.,1.)) ;
#298=DIRECTION('Axis2P3D XDirection',(0.,-1.,0.)) ;
#302=DIRECTION('Vector Direction',(8.65956056235E-17,0.707106781186,0.707106781187)) ;
#309=DIRECTION('Axis2P3D Direction',(0.,0.,1.)) ;
#316=DIRECTION('Vector Direction',(0.,-0.707106781186,0.707106781187)) ;
#329=DIRECTION('Axis2P3D Direction',(0.,0.,1.)) ;
#342=DIRECTION('Axis2P3D Direction',(-0.,0.,1.)) ;
#343=DIRECTION('Axis2P3D XDirection',(0.,-1.,0.)) ;
#351=DIRECTION('Axis2P3D Direction',(-0.,0.,1.)) ;
#360=DIRECTION('Axis2P3D Direction',(-0.,0.,1.)) ;
#369=DIRECTION('Axis2P3D Direction',(-0.,0.,1.)) ;
#378=DIRECTION('Axis2P3D Direction',(-0.,0.,1.)) ;
#387=DIRECTION('Axis2P3D Direction',(-0.,0.,1.)) ;
#396=DIRECTION('Axis2P3D Direction',(-0.,0.,1.)) ;
#405=DIRECTION('Axis2P3D Direction',(-0.,0.,1.)) ;
#414=DIRECTION('Axis2P3D Direction',(-0.,0.,1.)) ;
#425=DIRECTION('Axis2P3D Direction',(0.,0.,1.)) ;
#426=DIRECTION('Axis2P3D XDirection',(0.,-1.,0.)) ;
#430=DIRECTION('Vector Direction',(0.,0.,1.)) ;
#437=DIRECTION('Axis2P3D Direction',(0.,0.,1.)) ;
#444=DIRECTION('Vector Direction',(0.,0.,1.)) ;
#532=DIRECTION('Axis2P3D Direction',(0.,0.,1.)) ;
#545=DIRECTION('Axis2P3D Direction',(0.,-0.,1.)) ;
#546=DIRECTION('Axis2P3D XDirection',(1.,0.,0.)) ;
#550=DIRECTION('Vector Direction',(0.,0.,1.)) ;
#557=DIRECTION('Axis2P3D Direction',(0.,-0.,1.)) ;
#564=DIRECTION('Vector Direction',(0.,0.,1.)) ;
#576=DIRECTION('Axis2P3D Direction',(0.,-0.,1.)) ;
#588=DIRECTION('Axis2P3D Direction',(0.,0.,-1.)) ;
#589=DIRECTION('Axis2P3D XDirection',(0.,-1.,0.)) ;
#593=DIRECTION('Vector Direction',(1.73191211247E-16,-0.707106781186,-0.707106781187)) ;
#598=DIRECTION('Vector Direction',(-8.65956056235E-17,0.707106781186,-0.707106781187)) ;
#619=DIRECTION('Axis2P3D Direction',(0.,0.,-1.)) ;
#620=DIRECTION('Axis2P3D XDirection',(1.,0.,0.)) ;
#624=DIRECTION('Vector Direction',(-0.866025403784,-1.06057523872E-16,-0.5)) ;
#631=DIRECTION('Vector Direction',(0.866025403784,2.12115047745E-16,-0.5)) ;
#648=DIRECTION('Axis2P3D Direction',(-1.,0.,0.)) ;
#649=DIRECTION('Axis2P3D XDirection',(0.,-1.,-2.77555756157E-17)) ;
#653=DIRECTION('Vector Direction',(-1.,0.,0.)) ;
#658=DIRECTION('Vector Direction',(-1.,0.,0.)) ;
#679=DIRECTION('Axis2P3D Direction',(0.,0.,-1.)) ;
#680=DIRECTION('Axis2P3D XDirection',(1.,0.,0.)) ;
#684=DIRECTION('Vector Direction',(0.,0.,-1.)) ;
#689=DIRECTION('Axis2P3D Direction',(0.,0.,-1.)) ;
#694=DIRECTION('Vector Direction',(0.,0.,-1.)) ;
#719=DIRECTION('Axis2P3D Direction',(0.,0.,1.)) ;
#720=DIRECTION('Axis2P3D XDirection',(-0.5,-0.866025403784,0.)) ;
#724=DIRECTION('Vector Direction',(0.433012701892,0.75,0.5)) ;
#733=DIRECTION('Axis2P3D Direction',(0.,0.,1.)) ;
#740=DIRECTION('Vector Direction',(-0.433012701892,-0.75,0.5)) ;
#751=DIRECTION('Axis2P3D Direction',(0.,0.,1.)) ;
#762=DIRECTION('Axis2P3D Direction',(-0.,0.,-1.)) ;
#763=DIRECTION('Axis2P3D XDirection',(-0.5,-0.866025403784,0.)) ;
#767=DIRECTION('Vector Direction',(0.,0.,-1.)) ;
#772=DIRECTION('Vector Direction',(0.,0.,-1.)) ;
#791=DIRECTION('Axis2P3D Direction',(0.,-0.,1.)) ;
#792=DIRECTION('Axis2P3D XDirection',(-0.5,0.866025403784,0.)) ;
#796=DIRECTION('Vector Direction',(0.433012701892,-0.75,0.5)) ;
#805=DIRECTION('Axis2P3D Direction',(0.,0.,1.)) ;
#812=DIRECTION('Vector Direction',(-0.433012701892,0.75,0.5)) ;
#823=DIRECTION('Axis2P3D Direction',(0.,0.,1.)) ;
#834=DIRECTION('Axis2P3D Direction',(0.,0.,-1.)) ;
#835=DIRECTION('Axis2P3D XDirection',(-0.5,0.866025403784,0.)) ;
#839=DIRECTION('Vector Direction',(0.,0.,-1.)) ;
#844=DIRECTION('Vector Direction',(0.,0.,-1.)) ;
#863=DIRECTION('Axis2P3D Direction',(0.,0.,-1.)) ;
#864=DIRECTION('Axis2P3D XDirection',(-0.5,-0.866025403784,0.)) ;
#868=DIRECTION('Vector Direction',(0.433012701892,0.75,-0.5)) ;
#877=DIRECTION('Axis2P3D Direction',(0.,-0.,-1.)) ;
#884=DIRECTION('Vector Direction',(-0.433012701892,-0.75,-0.5)) ;
#895=DIRECTION('Axis2P3D Direction',(0.,-0.,-1.)) ;
#906=DIRECTION('Axis2P3D Direction',(0.,0.,1.)) ;
#907=DIRECTION('Axis2P3D XDirection',(-0.5,-0.866025403784,0.)) ;
#911=DIRECTION('Vector Direction',(0.,0.,1.)) ;
#916=DIRECTION('Vector Direction',(0.,0.,1.)) ;
#935=DIRECTION('Axis2P3D Direction',(0.,0.,-1.)) ;
#936=DIRECTION('Axis2P3D XDirection',(-0.5,0.866025403784,0.)) ;
#940=DIRECTION('Vector Direction',(0.433012701892,-0.75,-0.5)) ;
#949=DIRECTION('Axis2P3D Direction',(0.,0.,-1.)) ;
#956=DIRECTION('Vector Direction',(-0.433012701892,0.75,-0.5)) ;
#967=DIRECTION('Axis2P3D Direction',(0.,0.,-1.)) ;
#978=DIRECTION('Axis2P3D Direction',(0.,0.,1.)) ;
#979=DIRECTION('Axis2P3D XDirection',(-0.5,0.866025403784,0.)) ;
#983=DIRECTION('Vector Direction',(0.,0.,1.)) ;
#988=DIRECTION('Vector Direction',(0.,0.,1.)) ;
#1007=SHAPE_REPRESENTATION_RELATIONSHIP(' ',' ',#19,#1006) ;
#18=AXIS2_PLACEMENT_3D(' ',#17,$,$) ;
#34=AXIS2_PLACEMENT_3D('Cone Axis2P3D',#31,#32,#33) ;
#47=AXIS2_PLACEMENT_3D('Circle Axis2P3D',#45,#46,$) ;
#66=AXIS2_PLACEMENT_3D('Plane Axis2P3D',#63,#64,#65) ;
#70=AXIS2_PLACEMENT_3D('Circle Axis2P3D',#68,#69,$) ;
#79=AXIS2_PLACEMENT_3D('Circle Axis2P3D',#77,#78,$) ;
#88=AXIS2_PLACEMENT_3D('Circle Axis2P3D',#86,#87,$) ;
#97=AXIS2_PLACEMENT_3D('Circle Axis2P3D',#95,#96,$) ;
#166=AXIS2_PLACEMENT_3D('Circle Axis2P3D',#164,#165,$) ;
#175=AXIS2_PLACEMENT_3D('Circle Axis2P3D',#173,#174,$) ;
#184=AXIS2_PLACEMENT_3D('Circle Axis2P3D',#182,#183,$) ;
#193=AXIS2_PLACEMENT_3D('Circle Axis2P3D',#191,#192,$) ;
#212=AXIS2_PLACEMENT_3D('Cylinder Axis2P3D',#209,#210,#211) ;
#230=AXIS2_PLACEMENT_3D('Circle Axis2P3D',#228,#229,$) ;
#243=AXIS2_PLACEMENT_3D('Circle Axis2P3D',#241,#242,$) ;
#299=AXIS2_PLACEMENT_3D('Cone Axis2P3D',#296,#297,#298) ;
#310=AXIS2_PLACEMENT_3D('Circle Axis2P3D',#308,#309,$) ;
#330=AXIS2_PLACEMENT_3D('Circle Axis2P3D',#328,#329,$) ;
#344=AXIS2_PLACEMENT_3D('Plane Axis2P3D',#341,#342,#343) ;
#352=AXIS2_PLACEMENT_3D('Circle Axis2P3D',#350,#351,$) ;
#361=AXIS2_PLACEMENT_3D('Circle Axis2P3D',#359,#360,$) ;
#370=AXIS2_PLACEMENT_3D('Circle Axis2P3D',#368,#369,$) ;
#379=AXIS2_PLACEMENT_3D('Circle Axis2P3D',#377,#378,$) ;
#388=AXIS2_PLACEMENT_3D('Circle Axis2P3D',#386,#387,$) ;
#397=AXIS2_PLACEMENT_3D('Circle Axis2P3D',#395,#396,$) ;
#406=AXIS2_PLACEMENT_3D('Circle Axis2P3D',#404,#405,$) ;
#415=AXIS2_PLACEMENT_3D('Circle Axis2P3D',#413,#414,$) ;
#427=AXIS2_PLACEMENT_3D('Cylinder Axis2P3D',#424,#425,#426) ;
#438=AXIS2_PLACEMENT_3D('Circle Axis2P3D',#436,#437,$) ;
#533=AXIS2_PLACEMENT_3D('Circle Axis2P3D',#531,#532,$) ;
#547=AXIS2_PLACEMENT_3D('Cylinder Axis2P3D',#544,#545,#546) ;
#558=AXIS2_PLACEMENT_3D('Circle Axis2P3D',#556,#557,$) ;
#577=AXIS2_PLACEMENT_3D('Circle Axis2P3D',#575,#576,$) ;
#590=AXIS2_PLACEMENT_3D('Cone Axis2P3D',#587,#588,#589) ;
#621=AXIS2_PLACEMENT_3D('Cone Axis2P3D',#618,#619,#620) ;
#650=AXIS2_PLACEMENT_3D('Cylinder Axis2P3D',#647,#648,#649) ;
#681=AXIS2_PLACEMENT_3D('Cylinder Axis2P3D',#678,#679,#680) ;
#690=AXIS2_PLACEMENT_3D('Circle Axis2P3D',#688,#689,$) ;
#721=AXIS2_PLACEMENT_3D('Cone Axis2P3D',#718,#719,#720) ;
#734=AXIS2_PLACEMENT_3D('Circle Axis2P3D',#732,#733,$) ;
#752=AXIS2_PLACEMENT_3D('Circle Axis2P3D',#750,#751,$) ;
#764=AXIS2_PLACEMENT_3D('Cylinder Axis2P3D',#761,#762,#763) ;
#793=AXIS2_PLACEMENT_3D('Cone Axis2P3D',#790,#791,#792) ;
#806=AXIS2_PLACEMENT_3D('Circle Axis2P3D',#804,#805,$) ;
#824=AXIS2_PLACEMENT_3D('Circle Axis2P3D',#822,#823,$) ;
#836=AXIS2_PLACEMENT_3D('Cylinder Axis2P3D',#833,#834,#835) ;
#865=AXIS2_PLACEMENT_3D('Cone Axis2P3D',#862,#863,#864) ;
#878=AXIS2_PLACEMENT_3D('Circle Axis2P3D',#876,#877,$) ;
#896=AXIS2_PLACEMENT_3D('Circle Axis2P3D',#894,#895,$) ;
#908=AXIS2_PLACEMENT_3D('Cylinder Axis2P3D',#905,#906,#907) ;
#937=AXIS2_PLACEMENT_3D('Cone Axis2P3D',#934,#935,#936) ;
#950=AXIS2_PLACEMENT_3D('Circle Axis2P3D',#948,#949,$) ;
#968=AXIS2_PLACEMENT_3D('Circle Axis2P3D',#966,#967,$) ;
#980=AXIS2_PLACEMENT_3D('Cylinder Axis2P3D',#977,#978,#979) ;
#39=LINE('Line',#36,#38) ;
#55=LINE('Line',#52,#54) ;
#217=LINE('Line',#214,#216) ;
#224=LINE('Line',#221,#223) ;
#304=LINE('Line',#301,#303) ;
#318=LINE('Line',#315,#317) ;
#432=LINE('Line',#429,#431) ;
#446=LINE('Line',#443,#445) ;
#552=LINE('Line',#549,#551) ;
#566=LINE('Line',#563,#565) ;
#595=LINE('Line',#592,#594) ;
#600=LINE('Line',#597,#599) ;
#626=LINE('Line',#623,#625) ;
#633=LINE('Line',#630,#632) ;
#655=LINE('Line',#652,#654) ;
#660=LINE('Line',#657,#659) ;
#686=LINE('Line',#683,#685) ;
#696=LINE('Line',#693,#695) ;
#726=LINE('Line',#723,#725) ;
#742=LINE('Line',#739,#741) ;
#769=LINE('Line',#766,#768) ;
#774=LINE('Line',#771,#773) ;
#798=LINE('Line',#795,#797) ;
#814=LINE('Line',#811,#813) ;
#841=LINE('Line',#838,#840) ;
#846=LINE('Line',#843,#845) ;
#870=LINE('Line',#867,#869) ;
#886=LINE('Line',#883,#885) ;
#913=LINE('Line',#910,#912) ;
#918=LINE('Line',#915,#917) ;
#942=LINE('Line',#939,#941) ;
#958=LINE('Line',#955,#957) ;
#985=LINE('Line',#982,#984) ;
#990=LINE('Line',#987,#989) ;
#48=CIRCLE('generated circle',#47,1.621) ;
#71=CIRCLE('generated circle',#70,21.5) ;
#80=CIRCLE('generated circle',#79,21.5) ;
#89=CIRCLE('generated circle',#88,1.621) ;
#98=CIRCLE('generated circle',#97,1.621) ;
#167=CIRCLE('generated circle',#166,1.621) ;
#176=CIRCLE('generated circle',#175,1.621) ;
#185=CIRCLE('generated circle',#184,1.621) ;
#194=CIRCLE('generated circle',#193,1.621) ;
#231=CIRCLE('generated circle',#230,21.5) ;
#244=CIRCLE('generated circle',#243,21.5) ;
#311=CIRCLE('generated circle',#310,12.65) ;
#331=CIRCLE('generated circle',#330,12.65) ;
#353=CIRCLE('generated circle',#352,1.621) ;
#362=CIRCLE('generated circle',#361,1.621) ;
#371=CIRCLE('generated circle',#370,13.1500000004) ;
#380=CIRCLE('generated circle',#379,13.1500000004) ;
#389=CIRCLE('generated circle',#388,1.621) ;
#398=CIRCLE('generated circle',#397,1.621) ;
#407=CIRCLE('generated circle',#406,1.621) ;
#416=CIRCLE('generated circle',#415,1.621) ;
#439=CIRCLE('generated circle',#438,12.65) ;
#534=CIRCLE('generated circle',#533,12.65) ;
#559=CIRCLE('generated circle',#558,1.621) ;
#578=CIRCLE('generated circle',#577,1.621) ;
#691=CIRCLE('generated circle',#690,1.621) ;
#735=CIRCLE('generated circle',#734,1.621) ;
#753=CIRCLE('generated circle',#752,1.621) ;
#807=CIRCLE('generated circle',#806,1.621) ;
#825=CIRCLE('generated circle',#824,1.621) ;
#879=CIRCLE('generated circle',#878,1.621) ;
#897=CIRCLE('generated circle',#896,1.621) ;
#951=CIRCLE('generated circle',#950,1.621) ;
#969=CIRCLE('generated circle',#968,1.621) ;
#67=PLANE('',#66) ;
#345=PLANE('',#344) ;
#213=CYLINDRICAL_SURFACE('generated cylinder',#212,21.5) ;
#428=CYLINDRICAL_SURFACE('generated cylinder',#427,12.65) ;
#548=CYLINDRICAL_SURFACE('generated cylinder',#547,1.621) ;
#651=CYLINDRICAL_SURFACE('generated cylinder',#650,2.) ;
#682=CYLINDRICAL_SURFACE('generated cylinder',#681,1.621) ;
#765=CYLINDRICAL_SURFACE('generated cylinder',#764,1.621) ;
#837=CYLINDRICAL_SURFACE('generated cylinder',#836,1.621) ;
#909=CYLINDRICAL_SURFACE('generated cylinder',#908,1.621) ;
#981=CYLINDRICAL_SURFACE('generated cylinder',#980,1.621) ;
#35=CONICAL_SURFACE('Cone',#34,0.,1.0471975512) ;
#300=CONICAL_SURFACE('Cone',#299,12.8999999982,0.785398163397) ;
#591=CONICAL_SURFACE('Cone',#590,12.8999999982,0.785398163397) ;
#622=CONICAL_SURFACE('Cone',#621,0.,1.0471975512) ;
#722=CONICAL_SURFACE('Cone',#721,0.,1.0471975512) ;
#794=CONICAL_SURFACE('Cone',#793,0.,1.0471975512) ;
#866=CONICAL_SURFACE('Cone',#865,0.,1.0471975512) ;
#938=CONICAL_SURFACE('Cone',#937,0.,1.0471975512) ;
#103=FACE_BOUND('',#100,.T.) ;
#163=FACE_BOUND('',#160,.T.) ;
#181=FACE_BOUND('',#178,.T.) ;
#199=FACE_BOUND('',#196,.T.) ;
#293=FACE_BOUND('',#290,.T.) ;
#367=FACE_BOUND('',#364,.T.) ;
#385=FACE_BOUND('',#382,.T.) ;
#403=FACE_BOUND('',#400,.T.) ;
#421=FACE_BOUND('',#418,.T.) ;
#528=FACE_BOUND('',#525,.T.) ;
#44=EDGE_CURVE('',#41,#43,#39,.T.) ;
#51=EDGE_CURVE('',#50,#43,#48,.F.) ;
#56=EDGE_CURVE('',#41,#50,#55,.T.) ;
#76=EDGE_CURVE('',#73,#75,#71,.T.) ;
#81=EDGE_CURVE('',#75,#73,#80,.T.) ;
#94=EDGE_CURVE('',#91,#93,#89,.T.) ;
#99=EDGE_CURVE('',#93,#91,#98,.T.) ;
#133=EDGE_CURVE('',#130,#132,#104,.T.) ;
#159=EDGE_CURVE('',#132,#130,#134,.T.) ;
#172=EDGE_CURVE('',#169,#171,#167,.T.) ;
#177=EDGE_CURVE('',#171,#169,#176,.T.) ;
#190=EDGE_CURVE('',#187,#189,#185,.T.) ;
#195=EDGE_CURVE('',#189,#187,#194,.T.) ;
#220=EDGE_CURVE('',#219,#75,#217,.T.) ;
#227=EDGE_CURVE('',#226,#73,#224,.T.) ;
#232=EDGE_CURVE('',#226,#219,#231,.T.) ;
#245=EDGE_CURVE('',#219,#226,#244,.T.) ;
#272=EDGE_CURVE('',#269,#271,#252,.T.) ;
#289=EDGE_CURVE('',#271,#269,#273,.T.) ;
#307=EDGE_CURVE('',#130,#306,#304,.F.) ;
#314=EDGE_CURVE('',#306,#313,#311,.F.) ;
#319=EDGE_CURVE('',#132,#313,#318,.F.) ;
#332=EDGE_CURVE('',#313,#306,#331,.F.) ;
#358=EDGE_CURVE('',#355,#357,#353,.T.) ;
#363=EDGE_CURVE('',#357,#355,#362,.T.) ;
#376=EDGE_CURVE('',#373,#375,#371,.T.) ;
#381=EDGE_CURVE('',#375,#373,#380,.T.) ;
#394=EDGE_CURVE('',#391,#393,#389,.T.) ;
#399=EDGE_CURVE('',#393,#391,#398,.T.) ;
#412=EDGE_CURVE('',#409,#411,#407,.T.) ;
#417=EDGE_CURVE('',#411,#409,#416,.T.) ;
#435=EDGE_CURVE('',#434,#306,#432,.T.) ;
#442=EDGE_CURVE('',#441,#434,#439,.T.) ;
#447=EDGE_CURVE('',#441,#313,#446,.T.) ;
#492=EDGE_CURVE('',#489,#491,#454,.T.) ;
#524=EDGE_CURVE('',#491,#489,#493,.T.) ;
#535=EDGE_CURVE('',#434,#441,#534,.T.) ;
#555=EDGE_CURVE('',#554,#357,#552,.F.) ;
#562=EDGE_CURVE('',#554,#561,#559,.T.) ;
#567=EDGE_CURVE('',#561,#355,#566,.F.) ;
#579=EDGE_CURVE('',#561,#554,#578,.T.) ;
#596=EDGE_CURVE('',#375,#441,#595,.F.) ;
#601=EDGE_CURVE('',#373,#434,#600,.F.) ;
#629=EDGE_CURVE('',#628,#561,#626,.T.) ;
#634=EDGE_CURVE('',#628,#554,#633,.T.) ;
#656=EDGE_CURVE('',#269,#489,#655,.T.) ;
#661=EDGE_CURVE('',#271,#491,#660,.T.) ;
#687=EDGE_CURVE('',#43,#91,#686,.F.) ;
#692=EDGE_CURVE('',#43,#50,#691,.T.) ;
#697=EDGE_CURVE('',#50,#93,#696,.F.) ;
#731=EDGE_CURVE('',#728,#730,#726,.T.) ;
#738=EDGE_CURVE('',#737,#730,#735,.F.) ;
#743=EDGE_CURVE('',#728,#737,#742,.T.) ;
#754=EDGE_CURVE('',#730,#737,#753,.F.) ;
#770=EDGE_CURVE('',#737,#169,#769,.F.) ;
#775=EDGE_CURVE('',#730,#171,#774,.F.) ;
#803=EDGE_CURVE('',#800,#802,#798,.T.) ;
#810=EDGE_CURVE('',#809,#802,#807,.F.) ;
#815=EDGE_CURVE('',#800,#809,#814,.T.) ;
#826=EDGE_CURVE('',#802,#809,#825,.F.) ;
#842=EDGE_CURVE('',#809,#187,#841,.F.) ;
#847=EDGE_CURVE('',#802,#189,#846,.F.) ;
#875=EDGE_CURVE('',#872,#874,#870,.T.) ;
#882=EDGE_CURVE('',#881,#874,#879,.F.) ;
#887=EDGE_CURVE('',#872,#881,#886,.T.) ;
#898=EDGE_CURVE('',#874,#881,#897,.F.) ;
#914=EDGE_CURVE('',#881,#391,#913,.F.) ;
#919=EDGE_CURVE('',#874,#393,#918,.F.) ;
#947=EDGE_CURVE('',#944,#946,#942,.T.) ;
#954=EDGE_CURVE('',#953,#946,#951,.F.) ;
#959=EDGE_CURVE('',#944,#953,#958,.T.) ;
#970=EDGE_CURVE('',#946,#953,#969,.F.) ;
#986=EDGE_CURVE('',#953,#409,#985,.F.) ;
#991=EDGE_CURVE('',#946,#411,#990,.F.) ;
#30=CLOSED_SHELL('Closed Shell',(#62,#200,#239,#294,#326,#339,#422,#529,#542,#574,#586,#608,#616,#640,#646,#668,#676,#704,#711,#717,#749,#760,#782,#789,#821,#832,#854,#861,#893,#904,#926,#933,#965,#976,#998,#1005)) ;
#58=ORIENTED_EDGE('',*,*,#44,.T.) ;
#59=ORIENTED_EDGE('',*,*,#51,.F.) ;
#60=ORIENTED_EDGE('',*,*,#56,.F.) ;
#83=ORIENTED_EDGE('',*,*,#76,.T.) ;
#84=ORIENTED_EDGE('',*,*,#81,.T.) ;
#101=ORIENTED_EDGE('',*,*,#94,.F.) ;
#102=ORIENTED_EDGE('',*,*,#99,.F.) ;
#161=ORIENTED_EDGE('',*,*,#133,.T.) ;
#162=ORIENTED_EDGE('',*,*,#159,.T.) ;
#179=ORIENTED_EDGE('',*,*,#172,.F.) ;
#180=ORIENTED_EDGE('',*,*,#177,.F.) ;
#197=ORIENTED_EDGE('',*,*,#190,.F.) ;
#198=ORIENTED_EDGE('',*,*,#195,.F.) ;
#234=ORIENTED_EDGE('',*,*,#220,.T.) ;
#235=ORIENTED_EDGE('',*,*,#76,.F.) ;
#236=ORIENTED_EDGE('',*,*,#227,.F.) ;
#237=ORIENTED_EDGE('',*,*,#232,.T.) ;
#247=ORIENTED_EDGE('',*,*,#227,.T.) ;
#248=ORIENTED_EDGE('',*,*,#81,.F.) ;
#249=ORIENTED_EDGE('',*,*,#220,.F.) ;
#250=ORIENTED_EDGE('',*,*,#245,.T.) ;
#291=ORIENTED_EDGE('',*,*,#272,.F.) ;
#292=ORIENTED_EDGE('',*,*,#289,.F.) ;
#321=ORIENTED_EDGE('',*,*,#307,.T.) ;
#322=ORIENTED_EDGE('',*,*,#314,.T.) ;
#323=ORIENTED_EDGE('',*,*,#319,.F.) ;
#324=ORIENTED_EDGE('',*,*,#133,.F.) ;
#334=ORIENTED_EDGE('',*,*,#319,.T.) ;
#335=ORIENTED_EDGE('',*,*,#332,.T.) ;
#336=ORIENTED_EDGE('',*,*,#307,.F.) ;
#337=ORIENTED_EDGE('',*,*,#159,.F.) ;
#347=ORIENTED_EDGE('',*,*,#245,.F.) ;
#348=ORIENTED_EDGE('',*,*,#232,.F.) ;
#365=ORIENTED_EDGE('',*,*,#358,.T.) ;
#366=ORIENTED_EDGE('',*,*,#363,.T.) ;
#383=ORIENTED_EDGE('',*,*,#376,.T.) ;
#384=ORIENTED_EDGE('',*,*,#381,.T.) ;
#401=ORIENTED_EDGE('',*,*,#394,.T.) ;
#402=ORIENTED_EDGE('',*,*,#399,.T.) ;
#419=ORIENTED_EDGE('',*,*,#412,.T.) ;
#420=ORIENTED_EDGE('',*,*,#417,.T.) ;
#449=ORIENTED_EDGE('',*,*,#435,.F.) ;
#450=ORIENTED_EDGE('',*,*,#442,.F.) ;
#451=ORIENTED_EDGE('',*,*,#447,.T.) ;
#452=ORIENTED_EDGE('',*,*,#314,.F.) ;
#526=ORIENTED_EDGE('',*,*,#492,.T.) ;
#527=ORIENTED_EDGE('',*,*,#524,.T.) ;
#537=ORIENTED_EDGE('',*,*,#447,.F.) ;
#538=ORIENTED_EDGE('',*,*,#535,.F.) ;
#539=ORIENTED_EDGE('',*,*,#435,.T.) ;
#540=ORIENTED_EDGE('',*,*,#332,.F.) ;
#569=ORIENTED_EDGE('',*,*,#363,.F.) ;
#570=ORIENTED_EDGE('',*,*,#555,.F.) ;
#571=ORIENTED_EDGE('',*,*,#562,.T.) ;
#572=ORIENTED_EDGE('',*,*,#567,.T.) ;
#581=ORIENTED_EDGE('',*,*,#358,.F.) ;
#582=ORIENTED_EDGE('',*,*,#567,.F.) ;
#583=ORIENTED_EDGE('',*,*,#579,.T.) ;
#584=ORIENTED_EDGE('',*,*,#555,.T.) ;
#603=ORIENTED_EDGE('',*,*,#596,.T.) ;
#604=ORIENTED_EDGE('',*,*,#442,.T.) ;
#605=ORIENTED_EDGE('',*,*,#601,.F.) ;
#606=ORIENTED_EDGE('',*,*,#381,.F.) ;
#611=ORIENTED_EDGE('',*,*,#601,.T.) ;
#612=ORIENTED_EDGE('',*,*,#535,.T.) ;
#613=ORIENTED_EDGE('',*,*,#596,.F.) ;
#614=ORIENTED_EDGE('',*,*,#376,.F.) ;
#636=ORIENTED_EDGE('',*,*,#629,.T.) ;
#637=ORIENTED_EDGE('',*,*,#562,.F.) ;
#638=ORIENTED_EDGE('',*,*,#634,.F.) ;
#642=ORIENTED_EDGE('',*,*,#634,.T.) ;
#643=ORIENTED_EDGE('',*,*,#579,.F.) ;
#644=ORIENTED_EDGE('',*,*,#629,.F.) ;
#663=ORIENTED_EDGE('',*,*,#656,.T.) ;
#664=ORIENTED_EDGE('',*,*,#524,.F.) ;
#665=ORIENTED_EDGE('',*,*,#661,.F.) ;
#666=ORIENTED_EDGE('',*,*,#289,.T.) ;
#671=ORIENTED_EDGE('',*,*,#661,.T.) ;
#672=ORIENTED_EDGE('',*,*,#492,.F.) ;
#673=ORIENTED_EDGE('',*,*,#656,.F.) ;
#674=ORIENTED_EDGE('',*,*,#272,.T.) ;
#699=ORIENTED_EDGE('',*,*,#99,.T.) ;
#700=ORIENTED_EDGE('',*,*,#687,.F.) ;
#701=ORIENTED_EDGE('',*,*,#692,.T.) ;
#702=ORIENTED_EDGE('',*,*,#697,.T.) ;
#706=ORIENTED_EDGE('',*,*,#94,.T.) ;
#707=ORIENTED_EDGE('',*,*,#697,.F.) ;
#708=ORIENTED_EDGE('',*,*,#51,.T.) ;
#709=ORIENTED_EDGE('',*,*,#687,.T.) ;
#713=ORIENTED_EDGE('',*,*,#56,.T.) ;
#714=ORIENTED_EDGE('',*,*,#692,.F.) ;
#715=ORIENTED_EDGE('',*,*,#44,.F.) ;
#745=ORIENTED_EDGE('',*,*,#731,.T.) ;
#746=ORIENTED_EDGE('',*,*,#738,.F.) ;
#747=ORIENTED_EDGE('',*,*,#743,.F.) ;
#756=ORIENTED_EDGE('',*,*,#743,.T.) ;
#757=ORIENTED_EDGE('',*,*,#754,.F.) ;
#758=ORIENTED_EDGE('',*,*,#731,.F.) ;
#777=ORIENTED_EDGE('',*,*,#177,.T.) ;
#778=ORIENTED_EDGE('',*,*,#770,.F.) ;
#779=ORIENTED_EDGE('',*,*,#738,.T.) ;
#780=ORIENTED_EDGE('',*,*,#775,.T.) ;
#784=ORIENTED_EDGE('',*,*,#172,.T.) ;
#785=ORIENTED_EDGE('',*,*,#775,.F.) ;
#786=ORIENTED_EDGE('',*,*,#754,.T.) ;
#787=ORIENTED_EDGE('',*,*,#770,.T.) ;
#817=ORIENTED_EDGE('',*,*,#803,.T.) ;
#818=ORIENTED_EDGE('',*,*,#810,.F.) ;
#819=ORIENTED_EDGE('',*,*,#815,.F.) ;
#828=ORIENTED_EDGE('',*,*,#815,.T.) ;
#829=ORIENTED_EDGE('',*,*,#826,.F.) ;
#830=ORIENTED_EDGE('',*,*,#803,.F.) ;
#849=ORIENTED_EDGE('',*,*,#195,.T.) ;
#850=ORIENTED_EDGE('',*,*,#842,.F.) ;
#851=ORIENTED_EDGE('',*,*,#810,.T.) ;
#852=ORIENTED_EDGE('',*,*,#847,.T.) ;
#856=ORIENTED_EDGE('',*,*,#190,.T.) ;
#857=ORIENTED_EDGE('',*,*,#847,.F.) ;
#858=ORIENTED_EDGE('',*,*,#826,.T.) ;
#859=ORIENTED_EDGE('',*,*,#842,.T.) ;
#889=ORIENTED_EDGE('',*,*,#875,.T.) ;
#890=ORIENTED_EDGE('',*,*,#882,.F.) ;
#891=ORIENTED_EDGE('',*,*,#887,.F.) ;
#900=ORIENTED_EDGE('',*,*,#887,.T.) ;
#901=ORIENTED_EDGE('',*,*,#898,.F.) ;
#902=ORIENTED_EDGE('',*,*,#875,.F.) ;
#921=ORIENTED_EDGE('',*,*,#394,.F.) ;
#922=ORIENTED_EDGE('',*,*,#914,.F.) ;
#923=ORIENTED_EDGE('',*,*,#882,.T.) ;
#924=ORIENTED_EDGE('',*,*,#919,.T.) ;
#928=ORIENTED_EDGE('',*,*,#399,.F.) ;
#929=ORIENTED_EDGE('',*,*,#919,.F.) ;
#930=ORIENTED_EDGE('',*,*,#898,.T.) ;
#931=ORIENTED_EDGE('',*,*,#914,.T.) ;
#961=ORIENTED_EDGE('',*,*,#947,.T.) ;
#962=ORIENTED_EDGE('',*,*,#954,.F.) ;
#963=ORIENTED_EDGE('',*,*,#959,.F.) ;
#972=ORIENTED_EDGE('',*,*,#959,.T.) ;
#973=ORIENTED_EDGE('',*,*,#970,.F.) ;
#974=ORIENTED_EDGE('',*,*,#947,.F.) ;
#993=ORIENTED_EDGE('',*,*,#412,.F.) ;
#994=ORIENTED_EDGE('',*,*,#986,.F.) ;
#995=ORIENTED_EDGE('',*,*,#954,.T.) ;
#996=ORIENTED_EDGE('',*,*,#991,.T.) ;
#1000=ORIENTED_EDGE('',*,*,#417,.F.) ;
#1001=ORIENTED_EDGE('',*,*,#991,.F.) ;
#1002=ORIENTED_EDGE('',*,*,#970,.T.) ;
#1003=ORIENTED_EDGE('',*,*,#986,.T.) ;
#57=EDGE_LOOP('',(#58,#59,#60)) ;
#82=EDGE_LOOP('',(#83,#84)) ;
#100=EDGE_LOOP('',(#101,#102)) ;
#160=EDGE_LOOP('',(#161,#162)) ;
#178=EDGE_LOOP('',(#179,#180)) ;
#196=EDGE_LOOP('',(#197,#198)) ;
#233=EDGE_LOOP('',(#234,#235,#236,#237)) ;
#246=EDGE_LOOP('',(#247,#248,#249,#250)) ;
#290=EDGE_LOOP('',(#291,#292)) ;
#320=EDGE_LOOP('',(#321,#322,#323,#324)) ;
#333=EDGE_LOOP('',(#334,#335,#336,#337)) ;
#346=EDGE_LOOP('',(#347,#348)) ;
#364=EDGE_LOOP('',(#365,#366)) ;
#382=EDGE_LOOP('',(#383,#384)) ;
#400=EDGE_LOOP('',(#401,#402)) ;
#418=EDGE_LOOP('',(#419,#420)) ;
#448=EDGE_LOOP('',(#449,#450,#451,#452)) ;
#525=EDGE_LOOP('',(#526,#527)) ;
#536=EDGE_LOOP('',(#537,#538,#539,#540)) ;
#568=EDGE_LOOP('',(#569,#570,#571,#572)) ;
#580=EDGE_LOOP('',(#581,#582,#583,#584)) ;
#602=EDGE_LOOP('',(#603,#604,#605,#606)) ;
#610=EDGE_LOOP('',(#611,#612,#613,#614)) ;
#635=EDGE_LOOP('',(#636,#637,#638)) ;
#641=EDGE_LOOP('',(#642,#643,#644)) ;
#662=EDGE_LOOP('',(#663,#664,#665,#666)) ;
#670=EDGE_LOOP('',(#671,#672,#673,#674)) ;
#698=EDGE_LOOP('',(#699,#700,#701,#702)) ;
#705=EDGE_LOOP('',(#706,#707,#708,#709)) ;
#712=EDGE_LOOP('',(#713,#714,#715)) ;
#744=EDGE_LOOP('',(#745,#746,#747)) ;
#755=EDGE_LOOP('',(#756,#757,#758)) ;
#776=EDGE_LOOP('',(#777,#778,#779,#780)) ;
#783=EDGE_LOOP('',(#784,#785,#786,#787)) ;
#816=EDGE_LOOP('',(#817,#818,#819)) ;
#827=EDGE_LOOP('',(#828,#829,#830)) ;
#848=EDGE_LOOP('',(#849,#850,#851,#852)) ;
#855=EDGE_LOOP('',(#856,#857,#858,#859)) ;
#888=EDGE_LOOP('',(#889,#890,#891)) ;
#899=EDGE_LOOP('',(#900,#901,#902)) ;
#920=EDGE_LOOP('',(#921,#922,#923,#924)) ;
#927=EDGE_LOOP('',(#928,#929,#930,#931)) ;
#960=EDGE_LOOP('',(#961,#962,#963)) ;
#971=EDGE_LOOP('',(#972,#973,#974)) ;
#992=EDGE_LOOP('',(#993,#994,#995,#996)) ;
#999=EDGE_LOOP('',(#1000,#1001,#1002,#1003)) ;
#21=MANIFOLD_SOLID_BREP('MANIFOLD_SOLID_BREP #30455',#30) ;
#41=VERTEX_POINT('',#40) ;
#43=VERTEX_POINT('',#42) ;
#50=VERTEX_POINT('',#49) ;
#73=VERTEX_POINT('',#72) ;
#75=VERTEX_POINT('',#74) ;
#91=VERTEX_POINT('',#90) ;
#93=VERTEX_POINT('',#92) ;
#130=VERTEX_POINT('',#129) ;
#132=VERTEX_POINT('',#131) ;
#169=VERTEX_POINT('',#168) ;
#171=VERTEX_POINT('',#170) ;
#187=VERTEX_POINT('',#186) ;
#189=VERTEX_POINT('',#188) ;
#219=VERTEX_POINT('',#218) ;
#226=VERTEX_POINT('',#225) ;
#269=VERTEX_POINT('',#268) ;
#271=VERTEX_POINT('',#270) ;
#306=VERTEX_POINT('',#305) ;
#313=VERTEX_POINT('',#312) ;
#355=VERTEX_POINT('',#354) ;
#357=VERTEX_POINT('',#356) ;
#373=VERTEX_POINT('',#372) ;
#375=VERTEX_POINT('',#374) ;
#391=VERTEX_POINT('',#390) ;
#393=VERTEX_POINT('',#392) ;
#409=VERTEX_POINT('',#408) ;
#411=VERTEX_POINT('',#410) ;
#434=VERTEX_POINT('',#433) ;
#441=VERTEX_POINT('',#440) ;
#489=VERTEX_POINT('',#488) ;
#491=VERTEX_POINT('',#490) ;
#554=VERTEX_POINT('',#553) ;
#561=VERTEX_POINT('',#560) ;
#628=VERTEX_POINT('',#627) ;
#728=VERTEX_POINT('',#727) ;
#730=VERTEX_POINT('',#729) ;
#737=VERTEX_POINT('',#736) ;
#800=VERTEX_POINT('',#799) ;
#802=VERTEX_POINT('',#801) ;
#809=VERTEX_POINT('',#808) ;
#872=VERTEX_POINT('',#871) ;
#874=VERTEX_POINT('',#873) ;
#881=VERTEX_POINT('',#880) ;
#944=VERTEX_POINT('',#943) ;
#946=VERTEX_POINT('',#945) ;
#953=VERTEX_POINT('',#952) ;
#1006=ADVANCED_BREP_SHAPE_REPRESENTATION('NONE',(#21),#16) ;
#62=ADVANCED_FACE('MANIFOLD_SOLID_BREP #30455',(#61),#35,.F.) ;
#200=ADVANCED_FACE('MANIFOLD_SOLID_BREP #30455',(#85,#103,#163,#181,#199),#67,.T.) ;
#239=ADVANCED_FACE('MANIFOLD_SOLID_BREP #30455',(#238),#213,.T.) ;
#294=ADVANCED_FACE('MANIFOLD_SOLID_BREP #30455',(#251,#293),#213,.T.) ;
#326=ADVANCED_FACE('MANIFOLD_SOLID_BREP #30455',(#325),#300,.F.) ;
#339=ADVANCED_FACE('MANIFOLD_SOLID_BREP #30455',(#338),#300,.F.) ;
#422=ADVANCED_FACE('MANIFOLD_SOLID_BREP #30455',(#349,#367,#385,#403,#421),#345,.F.) ;
#529=ADVANCED_FACE('MANIFOLD_SOLID_BREP #30455',(#453,#528),#428,.F.) ;
#542=ADVANCED_FACE('MANIFOLD_SOLID_BREP #30455',(#541),#428,.F.) ;
#574=ADVANCED_FACE('MANIFOLD_SOLID_BREP #30455',(#573),#548,.F.) ;
#586=ADVANCED_FACE('MANIFOLD_SOLID_BREP #30455',(#585),#548,.F.) ;
#608=ADVANCED_FACE('MANIFOLD_SOLID_BREP #30455',(#607),#591,.F.) ;
#616=ADVANCED_FACE('MANIFOLD_SOLID_BREP #30455',(#615),#591,.F.) ;
#640=ADVANCED_FACE('MANIFOLD_SOLID_BREP #30455',(#639),#622,.F.) ;
#646=ADVANCED_FACE('MANIFOLD_SOLID_BREP #30455',(#645),#622,.F.) ;
#668=ADVANCED_FACE('MANIFOLD_SOLID_BREP #30455',(#667),#651,.F.) ;
#676=ADVANCED_FACE('MANIFOLD_SOLID_BREP #30455',(#675),#651,.F.) ;
#704=ADVANCED_FACE('MANIFOLD_SOLID_BREP #30455',(#703),#682,.F.) ;
#711=ADVANCED_FACE('MANIFOLD_SOLID_BREP #30455',(#710),#682,.F.) ;
#717=ADVANCED_FACE('MANIFOLD_SOLID_BREP #30455',(#716),#35,.F.) ;
#749=ADVANCED_FACE('MANIFOLD_SOLID_BREP #30455',(#748),#722,.F.) ;
#760=ADVANCED_FACE('MANIFOLD_SOLID_BREP #30455',(#759),#722,.F.) ;
#782=ADVANCED_FACE('MANIFOLD_SOLID_BREP #30455',(#781),#765,.F.) ;
#789=ADVANCED_FACE('MANIFOLD_SOLID_BREP #30455',(#788),#765,.F.) ;
#821=ADVANCED_FACE('MANIFOLD_SOLID_BREP #30455',(#820),#794,.F.) ;
#832=ADVANCED_FACE('MANIFOLD_SOLID_BREP #30455',(#831),#794,.F.) ;
#854=ADVANCED_FACE('MANIFOLD_SOLID_BREP #30455',(#853),#837,.F.) ;
#861=ADVANCED_FACE('MANIFOLD_SOLID_BREP #30455',(#860),#837,.F.) ;
#893=ADVANCED_FACE('MANIFOLD_SOLID_BREP #30455',(#892),#866,.F.) ;
#904=ADVANCED_FACE('MANIFOLD_SOLID_BREP #30455',(#903),#866,.F.) ;
#926=ADVANCED_FACE('MANIFOLD_SOLID_BREP #30455',(#925),#909,.F.) ;
#933=ADVANCED_FACE('MANIFOLD_SOLID_BREP #30455',(#932),#909,.F.) ;
#965=ADVANCED_FACE('MANIFOLD_SOLID_BREP #30455',(#964),#938,.F.) ;
#976=ADVANCED_FACE('MANIFOLD_SOLID_BREP #30455',(#975),#938,.F.) ;
#998=ADVANCED_FACE('MANIFOLD_SOLID_BREP #30455',(#997),#981,.F.) ;
#1005=ADVANCED_FACE('MANIFOLD_SOLID_BREP #30455',(#1004),#981,.F.) ;
#4=APPLICATION_PROTOCOL_DEFINITION('international standard','ap242_managed_model_based_3d_engineering',2014,#1) ;
#104=B_SPLINE_CURVE_WITH_KNOTS('',5,(#105,#106,#107,#108,#109,#110,#111,#112,#113,#114,#115,#116,#117,#118,#119,#120,#121,#122,#123,#124,#125,#126,#127,#128),.UNSPECIFIED.,.F.,.U.,(6,3,3,3,3,3,3,6),(0.,8.79321152163,17.5864230418,26.3796345769,35.1728461158,43.9660576451,52.7592691773,58.4234130143),.UNSPECIFIED.) ;
#134=B_SPLINE_CURVE_WITH_KNOTS('',5,(#135,#136,#137,#138,#139,#140,#141,#142,#143,#144,#145,#146,#147,#148,#149,#150,#151,#152,#153,#154,#155,#156,#157,#158),.UNSPECIFIED.,.F.,.U.,(6,3,3,3,3,3,3,6),(0.,8.79321152186,17.5864230419,26.3796345771,35.1728461161,43.9660576454,52.7592691777,58.4234130145),.UNSPECIFIED.) ;
#252=B_SPLINE_CURVE_WITH_KNOTS('',5,(#253,#254,#255,#256,#257,#258,#259,#260,#261,#262,#263,#264,#265,#266,#267),.UNSPECIFIED.,.F.,.U.,(6,3,3,3,6),(0.,2.93070427468,4.39887330496,7.33446905253,8.89526632487),.UNSPECIFIED.) ;
#273=B_SPLINE_CURVE_WITH_KNOTS('',5,(#274,#275,#276,#277,#278,#279,#280,#281,#282,#283,#284,#285,#286,#287,#288),.UNSPECIFIED.,.F.,.U.,(6,3,3,3,6),(0.,2.9307095891,4.39887316004,7.33446874943,8.89526391766),.UNSPECIFIED.) ;
#454=B_SPLINE_CURVE_WITH_KNOTS('',5,(#455,#456,#457,#458,#459,#460,#461,#462,#463,#464,#465,#466,#467,#468,#469,#470,#471,#472,#473,#474,#475,#476,#477,#478,#479,#480,#481,#482,#483,#484,#485,#486,#487),.UNSPECIFIED.,.F.,.U.,(6,3,3,3,3,3,3,3,3,3,6),(0.,0.483693534153,1.45530272091,2.42807456161,3.41004499837,4.38477466989,5.35654675234,6.32635694322,7.29226808677,8.25653830923,8.89596455975),.UNSPECIFIED.) ;
#493=B_SPLINE_CURVE_WITH_KNOTS('',5,(#494,#495,#496,#497,#498,#499,#500,#501,#502,#503,#504,#505,#506,#507,#508,#509,#510,#511,#512,#513,#514,#515,#516,#517,#518,#519,#520,#521,#522,#523),.UNSPECIFIED.,.F.,.U.,(6,3,3,3,3,3,3,3,3,6),(0.,0.484033424512,1.45620728063,2.42962909806,3.41117652667,4.38577953042,6.32701103817,7.29263020751,8.25673787505,8.89589892272),.UNSPECIFIED.) ;
#22=COLOUR_RGB('Colour',0.823529411765,0.823529411765,1.) ;
#201=COLOUR_RGB('Colour',0.,0.6,0.) ;
#208=OVER_RIDING_STYLED_ITEM(' ',(#207),#200,#29) ;
#240=OVER_RIDING_STYLED_ITEM(' ',(#207),#239,#29) ;
#295=OVER_RIDING_STYLED_ITEM(' ',(#207),#294,#29) ;
#327=OVER_RIDING_STYLED_ITEM(' ',(#207),#326,#29) ;
#340=OVER_RIDING_STYLED_ITEM(' ',(#207),#339,#29) ;
#423=OVER_RIDING_STYLED_ITEM(' ',(#207),#422,#29) ;
#530=OVER_RIDING_STYLED_ITEM(' ',(#207),#529,#29) ;
#543=OVER_RIDING_STYLED_ITEM(' ',(#207),#542,#29) ;
#609=OVER_RIDING_STYLED_ITEM(' ',(#207),#608,#29) ;
#617=OVER_RIDING_STYLED_ITEM(' ',(#207),#616,#29) ;
#669=OVER_RIDING_STYLED_ITEM(' ',(#207),#668,#29) ;
#677=OVER_RIDING_STYLED_ITEM(' ',(#207),#676,#29) ;
#61=FACE_OUTER_BOUND('',#57,.T.) ;
#85=FACE_OUTER_BOUND('',#82,.T.) ;
#238=FACE_OUTER_BOUND('',#233,.T.) ;
#251=FACE_OUTER_BOUND('',#246,.T.) ;
#325=FACE_OUTER_BOUND('',#320,.T.) ;
#338=FACE_OUTER_BOUND('',#333,.T.) ;
#349=FACE_OUTER_BOUND('',#346,.T.) ;
#453=FACE_OUTER_BOUND('',#448,.T.) ;
#541=FACE_OUTER_BOUND('',#536,.T.) ;
#573=FACE_OUTER_BOUND('',#568,.T.) ;
#585=FACE_OUTER_BOUND('',#580,.T.) ;
#607=FACE_OUTER_BOUND('',#602,.T.) ;
#615=FACE_OUTER_BOUND('',#610,.T.) ;
#639=FACE_OUTER_BOUND('',#635,.T.) ;
#645=FACE_OUTER_BOUND('',#641,.T.) ;
#667=FACE_OUTER_BOUND('',#662,.T.) ;
#675=FACE_OUTER_BOUND('',#670,.T.) ;
#703=FACE_OUTER_BOUND('',#698,.T.) ;
#710=FACE_OUTER_BOUND('',#705,.T.) ;
#716=FACE_OUTER_BOUND('',#712,.T.) ;
#748=FACE_OUTER_BOUND('',#744,.T.) ;
#759=FACE_OUTER_BOUND('',#755,.T.) ;
#781=FACE_OUTER_BOUND('',#776,.T.) ;
#788=FACE_OUTER_BOUND('',#783,.T.) ;
#820=FACE_OUTER_BOUND('',#816,.T.) ;
#831=FACE_OUTER_BOUND('',#827,.T.) ;
#853=FACE_OUTER_BOUND('',#848,.T.) ;
#860=FACE_OUTER_BOUND('',#855,.T.) ;
#892=FACE_OUTER_BOUND('',#888,.T.) ;
#903=FACE_OUTER_BOUND('',#899,.T.) ;
#925=FACE_OUTER_BOUND('',#920,.T.) ;
#932=FACE_OUTER_BOUND('',#927,.T.) ;
#964=FACE_OUTER_BOUND('',#960,.T.) ;
#975=FACE_OUTER_BOUND('',#971,.T.) ;
#997=FACE_OUTER_BOUND('',#992,.T.) ;
#1004=FACE_OUTER_BOUND('',#999,.T.) ;
#9=PRODUCT_CATEGORY_RELATIONSHIP(' ',' ',#7,#8) ;
#6=PRODUCT_DEFINITION_FORMATION_WITH_SPECIFIED_SOURCE('14',' ',#5,.NOT_KNOWN.) ;
#20=SHAPE_DEFINITION_REPRESENTATION(#11,#19) ;
#12=(LENGTH_UNIT()NAMED_UNIT(*)SI_UNIT(.MILLI.,.METRE.)) ;
#13=(NAMED_UNIT(*)PLANE_ANGLE_UNIT()SI_UNIT($,.RADIAN.)) ;
#14=(NAMED_UNIT(*)SI_UNIT($,.STERADIAN.)SOLID_ANGLE_UNIT()) ;
#16=(GEOMETRIC_REPRESENTATION_CONTEXT(3)GLOBAL_UNCERTAINTY_ASSIGNED_CONTEXT((#15))GLOBAL_UNIT_ASSIGNED_CONTEXT((#12,#13,#14))REPRESENTATION_CONTEXT(' ',' ')) ;
ENDSEC;
END-ISO-10303-21;
